org.apache.commons.io.ByteOrderMark.ByteOrderMark,8
org.apache.commons.io.ByteOrderMark.equals,12
org.apache.commons.io.ByteOrderMark.get,1
org.apache.commons.io.ByteOrderMark.getBytes,5
org.apache.commons.io.ByteOrderMark.getCharsetName,1
org.apache.commons.io.ByteOrderMark.hashCode,6
org.apache.commons.io.ByteOrderMark.length,1
org.apache.commons.io.ByteOrderMark.toString,18
org.apache.commons.io.Charsets.toCharset,2
org.apache.commons.io.Charsets.toCharset,3
org.apache.commons.io.CopyUtils.CopyUtils,0
org.apache.commons.io.CopyUtils.copy,9
org.apache.commons.io.CopyUtils.copy,9
org.apache.commons.io.CopyUtils.copy,2
org.apache.commons.io.CopyUtils.copy,3
org.apache.commons.io.CopyUtils.copy,4
org.apache.commons.io.CopyUtils.copy,1
org.apache.commons.io.CopyUtils.copy,2
org.apache.commons.io.CopyUtils.copy,1
org.apache.commons.io.CopyUtils.copy,2
org.apache.commons.io.CopyUtils.copy,2
org.apache.commons.io.DirectoryWalker.DirectoryWalker,1
org.apache.commons.io.DirectoryWalker.DirectoryWalker,2
org.apache.commons.io.DirectoryWalker.DirectoryWalker,11
org.apache.commons.io.DirectoryWalker.checkIfCancelled,3
org.apache.commons.io.DirectoryWalker.filterDirectoryContents,1
org.apache.commons.io.DirectoryWalker.handleCancelled,1
org.apache.commons.io.DirectoryWalker.handleDirectory,1
org.apache.commons.io.DirectoryWalker.handleDirectoryEnd,0
org.apache.commons.io.DirectoryWalker.handleDirectoryStart,0
org.apache.commons.io.DirectoryWalker.handleEnd,0
org.apache.commons.io.DirectoryWalker.handleFile,0
org.apache.commons.io.DirectoryWalker.handleIsCancelled,1
org.apache.commons.io.DirectoryWalker.handleRestricted,0
org.apache.commons.io.DirectoryWalker.handleStart,0
org.apache.commons.io.DirectoryWalker.walk,8
org.apache.commons.io.DirectoryWalker.walk,23
org.apache.commons.io.DirectoryWalker.CancelException.CancelException,3
org.apache.commons.io.DirectoryWalker.CancelException.CancelException,1
org.apache.commons.io.DirectoryWalker.CancelException.getDepth,1
org.apache.commons.io.DirectoryWalker.CancelException.getFile,1
org.apache.commons.io.EndianUtils.EndianUtils,1
org.apache.commons.io.EndianUtils.read,5
org.apache.commons.io.EndianUtils.readSwappedDouble,3
org.apache.commons.io.EndianUtils.readSwappedDouble,3
org.apache.commons.io.EndianUtils.readSwappedFloat,3
org.apache.commons.io.EndianUtils.readSwappedFloat,3
org.apache.commons.io.EndianUtils.readSwappedInteger,9
org.apache.commons.io.EndianUtils.readSwappedInteger,1
org.apache.commons.io.EndianUtils.readSwappedLong,7
org.apache.commons.io.EndianUtils.readSwappedLong,3
org.apache.commons.io.EndianUtils.readSwappedShort,3
org.apache.commons.io.EndianUtils.readSwappedShort,1
org.apache.commons.io.EndianUtils.readSwappedUnsignedInteger,11
org.apache.commons.io.EndianUtils.readSwappedUnsignedInteger,3
org.apache.commons.io.EndianUtils.readSwappedUnsignedShort,5
org.apache.commons.io.EndianUtils.readSwappedUnsignedShort,1
org.apache.commons.io.EndianUtils.swapDouble,4
org.apache.commons.io.EndianUtils.swapFloat,4
org.apache.commons.io.EndianUtils.swapInteger,1
org.apache.commons.io.EndianUtils.swapLong,1
org.apache.commons.io.EndianUtils.swapShort,1
org.apache.commons.io.EndianUtils.writeSwappedDouble,2
org.apache.commons.io.EndianUtils.writeSwappedDouble,2
org.apache.commons.io.EndianUtils.writeSwappedFloat,2
org.apache.commons.io.EndianUtils.writeSwappedFloat,2
org.apache.commons.io.EndianUtils.writeSwappedInteger,4
org.apache.commons.io.EndianUtils.writeSwappedInteger,4
org.apache.commons.io.EndianUtils.writeSwappedLong,8
org.apache.commons.io.EndianUtils.writeSwappedLong,8
org.apache.commons.io.EndianUtils.writeSwappedShort,2
org.apache.commons.io.EndianUtils.writeSwappedShort,2
org.apache.commons.io.FileCleaner.exitWhenFinished,1
org.apache.commons.io.FileCleaner.getInstance,1
org.apache.commons.io.FileCleaner.getTrackCount,2
org.apache.commons.io.FileCleaner.track,1
org.apache.commons.io.FileCleaner.track,1
org.apache.commons.io.FileCleaner.track,1
org.apache.commons.io.FileCleaner.track,1
org.apache.commons.io.FileCleaningTracker.addTracker,6
org.apache.commons.io.FileCleaningTracker.exitWhenFinished,3
org.apache.commons.io.FileCleaningTracker.getDeleteFailures,1
org.apache.commons.io.FileCleaningTracker.getTrackCount,2
org.apache.commons.io.FileCleaningTracker.track,1
org.apache.commons.io.FileCleaningTracker.track,1
org.apache.commons.io.FileCleaningTracker.track,4
org.apache.commons.io.FileCleaningTracker.track,3
org.apache.commons.io.FileCleaningTracker.Reaper.Reaper,3
org.apache.commons.io.FileCleaningTracker.Reaper.run,13
org.apache.commons.io.FileCleaningTracker.Tracker.Tracker,3
org.apache.commons.io.FileCleaningTracker.Tracker.delete,2
org.apache.commons.io.FileCleaningTracker.Tracker.getPath,1
org.apache.commons.io.FileDeleteStrategy.FileDeleteStrategy,1
org.apache.commons.io.FileDeleteStrategy.delete,4
org.apache.commons.io.FileDeleteStrategy.deleteQuietly,8
org.apache.commons.io.FileDeleteStrategy.doDelete,2
org.apache.commons.io.FileDeleteStrategy.toString,1
org.apache.commons.io.FileDeleteStrategy.ForceFileDeleteStrategy.ForceFileDeleteStrategy,1
org.apache.commons.io.FileDeleteStrategy.ForceFileDeleteStrategy.doDelete,2
org.apache.commons.io.FileExistsException.FileExistsException,1
org.apache.commons.io.FileExistsException.FileExistsException,1
org.apache.commons.io.FileExistsException.FileExistsException,1
org.apache.commons.io.FileSystemUtils.FileSystemUtils,1
org.apache.commons.io.FileSystemUtils.freeSpace,2
org.apache.commons.io.FileSystemUtils.freeSpaceKb,2
org.apache.commons.io.FileSystemUtils.freeSpaceKb,2
org.apache.commons.io.FileSystemUtils.freeSpaceKb,2
org.apache.commons.io.FileSystemUtils.freeSpaceKb,3
org.apache.commons.io.FileSystemUtils.freeSpaceOS,16
org.apache.commons.io.FileSystemUtils.freeSpaceUnix,34
org.apache.commons.io.FileSystemUtils.freeSpaceWindows,19
org.apache.commons.io.FileSystemUtils.openProcess,3
org.apache.commons.io.FileSystemUtils.parseBytes,8
org.apache.commons.io.FileSystemUtils.parseDir,35
org.apache.commons.io.FileSystemUtils.performCommand,50
org.apache.commons.io.FileUtils.FileUtils,1
org.apache.commons.io.FileUtils.byteCountToDisplaySize,22
org.apache.commons.io.FileUtils.checksum,10
org.apache.commons.io.FileUtils.checksumCRC32,4
org.apache.commons.io.FileUtils.cleanDirectory,20
org.apache.commons.io.FileUtils.cleanDirectoryOnExit,20
org.apache.commons.io.FileUtils.contentEquals,30
org.apache.commons.io.FileUtils.contentEqualsIgnoreEOL,29
org.apache.commons.io.FileUtils.convertFileCollectionToFileArray,3
org.apache.commons.io.FileUtils.copyDirectory,1
org.apache.commons.io.FileUtils.copyDirectory,1
org.apache.commons.io.FileUtils.copyDirectory,31
org.apache.commons.io.FileUtils.copyDirectory,1
org.apache.commons.io.FileUtils.copyDirectoryToDirectory,14
org.apache.commons.io.FileUtils.copyFile,1
org.apache.commons.io.FileUtils.copyFile,6
org.apache.commons.io.FileUtils.copyFile,27
org.apache.commons.io.FileUtils.copyFileToDirectory,1
org.apache.commons.io.FileUtils.copyFileToDirectory,9
org.apache.commons.io.FileUtils.copyInputStreamToFile,10
org.apache.commons.io.FileUtils.copyURLToFile,3
org.apache.commons.io.FileUtils.copyURLToFile,7
org.apache.commons.io.FileUtils.decodeUrl,35
org.apache.commons.io.FileUtils.deleteDirectory,10
org.apache.commons.io.FileUtils.deleteDirectoryOnExit,7
org.apache.commons.io.FileUtils.deleteQuietly,12
org.apache.commons.io.FileUtils.directoryContains,17
org.apache.commons.io.FileUtils.doCopyDirectory,30
org.apache.commons.io.FileUtils.doCopyFile,35
org.apache.commons.io.FileUtils.forceDelete,11
org.apache.commons.io.FileUtils.forceDeleteOnExit,4
org.apache.commons.io.FileUtils.forceMkdir,12
org.apache.commons.io.FileUtils.getFile,8
org.apache.commons.io.FileUtils.getFile,8
org.apache.commons.io.FileUtils.getTempDirectory,2
org.apache.commons.io.FileUtils.getTempDirectoryPath,2
org.apache.commons.io.FileUtils.getUserDirectory,2
org.apache.commons.io.FileUtils.getUserDirectoryPath,2
org.apache.commons.io.FileUtils.innerListFiles,10
org.apache.commons.io.FileUtils.isFileNewer,8
org.apache.commons.io.FileUtils.isFileNewer,5
org.apache.commons.io.FileUtils.isFileNewer,7
org.apache.commons.io.FileUtils.isFileOlder,8
org.apache.commons.io.FileUtils.isFileOlder,5
org.apache.commons.io.FileUtils.isFileOlder,7
org.apache.commons.io.FileUtils.isSymlink,20
org.apache.commons.io.FileUtils.iterateFiles,3
org.apache.commons.io.FileUtils.iterateFiles,3
org.apache.commons.io.FileUtils.iterateFilesAndDirs,3
org.apache.commons.io.FileUtils.lineIterator,2
org.apache.commons.io.FileUtils.lineIterator,12
org.apache.commons.io.FileUtils.listFiles,8
org.apache.commons.io.FileUtils.listFiles,9
org.apache.commons.io.FileUtils.listFilesAndDirs,12
org.apache.commons.io.FileUtils.moveDirectory,26
org.apache.commons.io.FileUtils.moveDirectoryToDirectory,15
org.apache.commons.io.FileUtils.moveFile,24
org.apache.commons.io.FileUtils.moveFileToDirectory,15
org.apache.commons.io.FileUtils.moveToDirectory,11
org.apache.commons.io.FileUtils.openInputStream,10
org.apache.commons.io.FileUtils.openOutputStream,2
org.apache.commons.io.FileUtils.openOutputStream,16
org.apache.commons.io.FileUtils.readFileToByteArray,9
org.apache.commons.io.FileUtils.readFileToString,3
org.apache.commons.io.FileUtils.readFileToString,9
org.apache.commons.io.FileUtils.readFileToString,3
org.apache.commons.io.FileUtils.readLines,3
org.apache.commons.io.FileUtils.readLines,9
org.apache.commons.io.FileUtils.readLines,3
org.apache.commons.io.FileUtils.setUpEffectiveDirFilter,2
org.apache.commons.io.FileUtils.setUpEffectiveFileFilter,3
org.apache.commons.io.FileUtils.sizeOf,10
org.apache.commons.io.FileUtils.sizeOfDirectory,17
org.apache.commons.io.FileUtils.toFile,10
org.apache.commons.io.FileUtils.toFiles,14
org.apache.commons.io.FileUtils.toSuffixes,5
org.apache.commons.io.FileUtils.toURLs,7
org.apache.commons.io.FileUtils.touch,10
org.apache.commons.io.FileUtils.validateListFilesParameters,5
org.apache.commons.io.FileUtils.waitFor,16
org.apache.commons.io.FileUtils.write,2
org.apache.commons.io.FileUtils.write,1
org.apache.commons.io.FileUtils.write,1
org.apache.commons.io.FileUtils.write,3
org.apache.commons.io.FileUtils.write,2
org.apache.commons.io.FileUtils.write,2
org.apache.commons.io.FileUtils.writeByteArrayToFile,1
org.apache.commons.io.FileUtils.writeByteArrayToFile,8
org.apache.commons.io.FileUtils.writeLines,1
org.apache.commons.io.FileUtils.writeLines,1
org.apache.commons.io.FileUtils.writeLines,1
org.apache.commons.io.FileUtils.writeLines,1
org.apache.commons.io.FileUtils.writeLines,8
org.apache.commons.io.FileUtils.writeLines,1
org.apache.commons.io.FileUtils.writeLines,1
org.apache.commons.io.FileUtils.writeLines,1
org.apache.commons.io.FileUtils.writeStringToFile,2
org.apache.commons.io.FileUtils.writeStringToFile,1
org.apache.commons.io.FileUtils.writeStringToFile,8
org.apache.commons.io.FileUtils.writeStringToFile,2
org.apache.commons.io.FileUtils.writeStringToFile,2
org.apache.commons.io.FilenameUtils.FilenameUtils,1
org.apache.commons.io.FilenameUtils.concat,22
org.apache.commons.io.FilenameUtils.directoryContains,9
org.apache.commons.io.FilenameUtils.doGetFullPath,22
org.apache.commons.io.FilenameUtils.doGetPath,14
org.apache.commons.io.FilenameUtils.doNormalize,63
org.apache.commons.io.FilenameUtils.equals,2
org.apache.commons.io.FilenameUtils.equals,13
org.apache.commons.io.FilenameUtils.equalsNormalized,2
org.apache.commons.io.FilenameUtils.equalsNormalizedOnSystem,2
org.apache.commons.io.FilenameUtils.equalsOnSystem,2
org.apache.commons.io.FilenameUtils.getBaseName,3
org.apache.commons.io.FilenameUtils.getExtension,8
org.apache.commons.io.FilenameUtils.getFullPath,2
org.apache.commons.io.FilenameUtils.getFullPathNoEndSeparator,2
org.apache.commons.io.FilenameUtils.getName,6
org.apache.commons.io.FilenameUtils.getPath,2
org.apache.commons.io.FilenameUtils.getPathNoEndSeparator,2
org.apache.commons.io.FilenameUtils.getPrefix,11
org.apache.commons.io.FilenameUtils.getPrefixLength,53
org.apache.commons.io.FilenameUtils.indexOfExtension,7
org.apache.commons.io.FilenameUtils.indexOfLastSeparator,8
org.apache.commons.io.FilenameUtils.isExtension,10
org.apache.commons.io.FilenameUtils.isExtension,12
org.apache.commons.io.FilenameUtils.isExtension,13
org.apache.commons.io.FilenameUtils.isSeparator,1
org.apache.commons.io.FilenameUtils.isSystemWindows,1
org.apache.commons.io.FilenameUtils.normalize,2
org.apache.commons.io.FilenameUtils.normalize,3
org.apache.commons.io.FilenameUtils.normalizeNoEndSeparator,2
org.apache.commons.io.FilenameUtils.normalizeNoEndSeparator,3
org.apache.commons.io.FilenameUtils.removeExtension,8
org.apache.commons.io.FilenameUtils.separatorsToSystem,8
org.apache.commons.io.FilenameUtils.separatorsToUnix,5
org.apache.commons.io.FilenameUtils.separatorsToWindows,5
org.apache.commons.io.FilenameUtils.splitOnTokens,32
org.apache.commons.io.FilenameUtils.wildcardMatch,2
org.apache.commons.io.FilenameUtils.wildcardMatch,55
org.apache.commons.io.FilenameUtils.wildcardMatchOnSystem,2
org.apache.commons.io.HexDump.HexDump,1
org.apache.commons.io.HexDump.dump,4
org.apache.commons.io.HexDump.dump,4
org.apache.commons.io.HexDump.dump,31
org.apache.commons.io.IOCase.IOCase,2
org.apache.commons.io.IOCase.checkCompareTo,5
org.apache.commons.io.IOCase.checkEndsWith,5
org.apache.commons.io.IOCase.checkEquals,5
org.apache.commons.io.IOCase.checkIndexOf,10
org.apache.commons.io.IOCase.checkRegionMatches,3
org.apache.commons.io.IOCase.checkStartsWith,3
org.apache.commons.io.IOCase.forName,10
org.apache.commons.io.IOCase.getName,1
org.apache.commons.io.IOCase.isCaseSensitive,1
org.apache.commons.io.IOCase.readResolve,2
org.apache.commons.io.IOCase.toString,1
org.apache.commons.io.IOExceptionWithCause.IOExceptionWithCause,3
org.apache.commons.io.IOExceptionWithCause.IOExceptionWithCause,2
org.apache.commons.io.IOUtils.IOUtils,1
org.apache.commons.io.IOUtils.closeQuietly,1
org.apache.commons.io.IOUtils.closeQuietly,1
org.apache.commons.io.IOUtils.closeQuietly,1
org.apache.commons.io.IOUtils.closeQuietly,1
org.apache.commons.io.IOUtils.closeQuietly,4
org.apache.commons.io.IOUtils.closeQuietly,4
org.apache.commons.io.IOUtils.closeQuietly,4
org.apache.commons.io.IOUtils.closeQuietly,4
org.apache.commons.io.IOUtils.contentEquals,16
org.apache.commons.io.IOUtils.contentEquals,16
org.apache.commons.io.IOUtils.contentEqualsIgnoreEOL,16
org.apache.commons.io.IOUtils.copy,5
org.apache.commons.io.IOUtils.copy,2
org.apache.commons.io.IOUtils.copy,5
org.apache.commons.io.IOUtils.copy,2
org.apache.commons.io.IOUtils.copy,3
org.apache.commons.io.IOUtils.copy,2
org.apache.commons.io.IOUtils.copy,4
org.apache.commons.io.IOUtils.copy,2
org.apache.commons.io.IOUtils.copyLarge,2
org.apache.commons.io.IOUtils.copyLarge,2
org.apache.commons.io.IOUtils.copyLarge,8
org.apache.commons.io.IOUtils.copyLarge,8
org.apache.commons.io.IOUtils.copyLarge,2
org.apache.commons.io.IOUtils.copyLarge,2
org.apache.commons.io.IOUtils.copyLarge,19
org.apache.commons.io.IOUtils.copyLarge,18
org.apache.commons.io.IOUtils.lineIterator,1
org.apache.commons.io.IOUtils.lineIterator,2
org.apache.commons.io.IOUtils.lineIterator,3
org.apache.commons.io.IOUtils.read,2
org.apache.commons.io.IOUtils.read,11
org.apache.commons.io.IOUtils.read,2
org.apache.commons.io.IOUtils.read,11
org.apache.commons.io.IOUtils.readFully,1
org.apache.commons.io.IOUtils.readFully,4
org.apache.commons.io.IOUtils.readFully,1
org.apache.commons.io.IOUtils.readFully,4
org.apache.commons.io.IOUtils.readLines,3
org.apache.commons.io.IOUtils.readLines,10
org.apache.commons.io.IOUtils.readLines,4
org.apache.commons.io.IOUtils.readLines,3
org.apache.commons.io.IOUtils.skip,13
org.apache.commons.io.IOUtils.skip,13
org.apache.commons.io.IOUtils.skipFully,6
org.apache.commons.io.IOUtils.skipFully,4
org.apache.commons.io.IOUtils.toBufferedInputStream,2
org.apache.commons.io.IOUtils.toBufferedReader,1
org.apache.commons.io.IOUtils.toByteArray,4
org.apache.commons.io.IOUtils.toByteArray,3
org.apache.commons.io.IOUtils.toByteArray,2
org.apache.commons.io.IOUtils.toByteArray,4
org.apache.commons.io.IOUtils.toByteArray,3
org.apache.commons.io.IOUtils.toByteArray,14
org.apache.commons.io.IOUtils.toByteArray,4
org.apache.commons.io.IOUtils.toCharArray,3
org.apache.commons.io.IOUtils.toCharArray,4
org.apache.commons.io.IOUtils.toCharArray,4
org.apache.commons.io.IOUtils.toCharArray,3
org.apache.commons.io.IOUtils.toInputStream,3
org.apache.commons.io.IOUtils.toInputStream,3
org.apache.commons.io.IOUtils.toInputStream,3
org.apache.commons.io.IOUtils.toInputStream,3
org.apache.commons.io.IOUtils.toInputStream,3
org.apache.commons.io.IOUtils.toInputStream,4
org.apache.commons.io.IOUtils.toString,3
org.apache.commons.io.IOUtils.toString,4
org.apache.commons.io.IOUtils.toString,3
org.apache.commons.io.IOUtils.toString,3
org.apache.commons.io.IOUtils.toString,4
org.apache.commons.io.IOUtils.toString,3
org.apache.commons.io.IOUtils.toString,4
org.apache.commons.io.IOUtils.toString,3
org.apache.commons.io.IOUtils.toString,7
org.apache.commons.io.IOUtils.toString,3
org.apache.commons.io.IOUtils.toString,1
org.apache.commons.io.IOUtils.toString,2
org.apache.commons.io.IOUtils.write,3
org.apache.commons.io.IOUtils.write,2
org.apache.commons.io.IOUtils.write,2
org.apache.commons.io.IOUtils.write,2
org.apache.commons.io.IOUtils.write,3
org.apache.commons.io.IOUtils.write,1
org.apache.commons.io.IOUtils.write,3
org.apache.commons.io.IOUtils.write,2
org.apache.commons.io.IOUtils.write,4
org.apache.commons.io.IOUtils.write,2
org.apache.commons.io.IOUtils.write,5
org.apache.commons.io.IOUtils.write,2
org.apache.commons.io.IOUtils.write,2
org.apache.commons.io.IOUtils.write,3
org.apache.commons.io.IOUtils.write,2
org.apache.commons.io.IOUtils.write,2
org.apache.commons.io.IOUtils.write,2
org.apache.commons.io.IOUtils.write,4
org.apache.commons.io.IOUtils.write,2
org.apache.commons.io.IOUtils.writeLines,2
org.apache.commons.io.IOUtils.writeLines,9
org.apache.commons.io.IOUtils.writeLines,13
org.apache.commons.io.IOUtils.writeLines,2
org.apache.commons.io.LineIterator.LineIterator,5
org.apache.commons.io.LineIterator.close,3
org.apache.commons.io.LineIterator.closeQuietly,2
org.apache.commons.io.LineIterator.hasNext,18
org.apache.commons.io.LineIterator.isValidLine,1
org.apache.commons.io.LineIterator.next,2
org.apache.commons.io.LineIterator.nextLine,6
org.apache.commons.io.LineIterator.remove,1
org.apache.commons.io.TaggedIOException.TaggedIOException,3
org.apache.commons.io.TaggedIOException.getCause,1
org.apache.commons.io.TaggedIOException.getTag,1
org.apache.commons.io.TaggedIOException.isTaggedWith,2
org.apache.commons.io.TaggedIOException.throwCauseIfTaggedWith,4
org.apache.commons.io.ThreadMonitor.ThreadMonitor,2
org.apache.commons.io.ThreadMonitor.run,4
org.apache.commons.io.ThreadMonitor.start,8
org.apache.commons.io.ThreadMonitor.start,3
org.apache.commons.io.ThreadMonitor.stop,2
org.apache.commons.io.comparator.AbstractFileComparator.sort,3
org.apache.commons.io.comparator.AbstractFileComparator.sort,3
org.apache.commons.io.comparator.AbstractFileComparator.toString,3
org.apache.commons.io.comparator.CompositeFileComparator.CompositeFileComparator,4
org.apache.commons.io.comparator.CompositeFileComparator.CompositeFileComparator,8
org.apache.commons.io.comparator.CompositeFileComparator.compare,7
org.apache.commons.io.comparator.CompositeFileComparator.toString,11
org.apache.commons.io.comparator.DefaultFileComparator.compare,2
org.apache.commons.io.comparator.DirectoryFileComparator.compare,3
org.apache.commons.io.comparator.DirectoryFileComparator.getType,4
org.apache.commons.io.comparator.ExtensionFileComparator.ExtensionFileComparator,1
org.apache.commons.io.comparator.ExtensionFileComparator.ExtensionFileComparator,1
org.apache.commons.io.comparator.ExtensionFileComparator.compare,8
org.apache.commons.io.comparator.ExtensionFileComparator.toString,1
org.apache.commons.io.comparator.LastModifiedFileComparator.compare,8
org.apache.commons.io.comparator.NameFileComparator.NameFileComparator,1
org.apache.commons.io.comparator.NameFileComparator.NameFileComparator,1
org.apache.commons.io.comparator.NameFileComparator.compare,4
org.apache.commons.io.comparator.NameFileComparator.toString,1
org.apache.commons.io.comparator.PathFileComparator.PathFileComparator,1
org.apache.commons.io.comparator.PathFileComparator.PathFileComparator,1
org.apache.commons.io.comparator.PathFileComparator.compare,4
org.apache.commons.io.comparator.PathFileComparator.toString,1
org.apache.commons.io.comparator.ReverseComparator.ReverseComparator,3
org.apache.commons.io.comparator.ReverseComparator.compare,2
org.apache.commons.io.comparator.ReverseComparator.toString,2
org.apache.commons.io.comparator.SizeFileComparator.SizeFileComparator,1
org.apache.commons.io.comparator.SizeFileComparator.SizeFileComparator,1
org.apache.commons.io.comparator.SizeFileComparator.compare,22
org.apache.commons.io.comparator.SizeFileComparator.toString,1
org.apache.commons.io.filefilter.AbstractFileFilter.accept,4
org.apache.commons.io.filefilter.AbstractFileFilter.accept,2
org.apache.commons.io.filefilter.AbstractFileFilter.toString,3
org.apache.commons.io.filefilter.AgeFileFilter.AgeFileFilter,1
org.apache.commons.io.filefilter.AgeFileFilter.AgeFileFilter,1
org.apache.commons.io.filefilter.AgeFileFilter.AgeFileFilter,2
org.apache.commons.io.filefilter.AgeFileFilter.AgeFileFilter,2
org.apache.commons.io.filefilter.AgeFileFilter.AgeFileFilter,1
org.apache.commons.io.filefilter.AgeFileFilter.AgeFileFilter,2
org.apache.commons.io.filefilter.AgeFileFilter.accept,3
org.apache.commons.io.filefilter.AgeFileFilter.toString,2
org.apache.commons.io.filefilter.AndFileFilter.AndFileFilter,1
org.apache.commons.io.filefilter.AndFileFilter.AndFileFilter,3
org.apache.commons.io.filefilter.AndFileFilter.AndFileFilter,5
org.apache.commons.io.filefilter.AndFileFilter.accept,8
org.apache.commons.io.filefilter.AndFileFilter.accept,8
org.apache.commons.io.filefilter.AndFileFilter.addFileFilter,1
org.apache.commons.io.filefilter.AndFileFilter.getFileFilters,2
org.apache.commons.io.filefilter.AndFileFilter.removeFileFilter,2
org.apache.commons.io.filefilter.AndFileFilter.setFileFilters,2
org.apache.commons.io.filefilter.AndFileFilter.toString,16
org.apache.commons.io.filefilter.CanReadFileFilter.CanReadFileFilter,0
org.apache.commons.io.filefilter.CanReadFileFilter.accept,2
org.apache.commons.io.filefilter.CanWriteFileFilter.CanWriteFileFilter,0
org.apache.commons.io.filefilter.CanWriteFileFilter.accept,2
org.apache.commons.io.filefilter.DelegateFileFilter.DelegateFileFilter,4
org.apache.commons.io.filefilter.DelegateFileFilter.DelegateFileFilter,4
org.apache.commons.io.filefilter.DelegateFileFilter.accept,4
org.apache.commons.io.filefilter.DelegateFileFilter.accept,4
org.apache.commons.io.filefilter.DelegateFileFilter.toString,4
org.apache.commons.io.filefilter.DirectoryFileFilter.DirectoryFileFilter,0
org.apache.commons.io.filefilter.DirectoryFileFilter.accept,2
org.apache.commons.io.filefilter.EmptyFileFilter.EmptyFileFilter,0
org.apache.commons.io.filefilter.EmptyFileFilter.accept,7
org.apache.commons.io.filefilter.FalseFileFilter.FalseFileFilter,0
org.apache.commons.io.filefilter.FalseFileFilter.accept,1
org.apache.commons.io.filefilter.FalseFileFilter.accept,1
org.apache.commons.io.filefilter.FileFileFilter.FileFileFilter,0
org.apache.commons.io.filefilter.FileFileFilter.accept,2
org.apache.commons.io.filefilter.FileFilterUtils.FileFilterUtils,0
org.apache.commons.io.filefilter.FileFilterUtils.ageFileFilter,1
org.apache.commons.io.filefilter.FileFilterUtils.ageFileFilter,1
org.apache.commons.io.filefilter.FileFilterUtils.ageFileFilter,1
org.apache.commons.io.filefilter.FileFilterUtils.ageFileFilter,1
org.apache.commons.io.filefilter.FileFilterUtils.ageFileFilter,1
org.apache.commons.io.filefilter.FileFilterUtils.ageFileFilter,1
org.apache.commons.io.filefilter.FileFilterUtils.and,2
org.apache.commons.io.filefilter.FileFilterUtils.andFileFilter,1
org.apache.commons.io.filefilter.FileFilterUtils.asFileFilter,1
org.apache.commons.io.filefilter.FileFilterUtils.asFileFilter,1
org.apache.commons.io.filefilter.FileFilterUtils.directoryFileFilter,1
org.apache.commons.io.filefilter.FileFilterUtils.falseFileFilter,1
org.apache.commons.io.filefilter.FileFilterUtils.fileFileFilter,1
org.apache.commons.io.filefilter.FileFilterUtils.filter,14
org.apache.commons.io.filefilter.FileFilterUtils.filter,5
org.apache.commons.io.filefilter.FileFilterUtils.filter,10
org.apache.commons.io.filefilter.FileFilterUtils.filterList,2
org.apache.commons.io.filefilter.FileFilterUtils.filterList,4
org.apache.commons.io.filefilter.FileFilterUtils.filterSet,4
org.apache.commons.io.filefilter.FileFilterUtils.filterSet,2
org.apache.commons.io.filefilter.FileFilterUtils.magicNumberFileFilter,1
org.apache.commons.io.filefilter.FileFilterUtils.magicNumberFileFilter,1
org.apache.commons.io.filefilter.FileFilterUtils.magicNumberFileFilter,1
org.apache.commons.io.filefilter.FileFilterUtils.magicNumberFileFilter,1
org.apache.commons.io.filefilter.FileFilterUtils.makeCVSAware,4
org.apache.commons.io.filefilter.FileFilterUtils.makeDirectoryOnly,3
org.apache.commons.io.filefilter.FileFilterUtils.makeFileOnly,3
org.apache.commons.io.filefilter.FileFilterUtils.makeSVNAware,4
org.apache.commons.io.filefilter.FileFilterUtils.nameFileFilter,1
org.apache.commons.io.filefilter.FileFilterUtils.nameFileFilter,1
org.apache.commons.io.filefilter.FileFilterUtils.notFileFilter,1
org.apache.commons.io.filefilter.FileFilterUtils.or,2
org.apache.commons.io.filefilter.FileFilterUtils.orFileFilter,1
org.apache.commons.io.filefilter.FileFilterUtils.prefixFileFilter,1
org.apache.commons.io.filefilter.FileFilterUtils.prefixFileFilter,1
org.apache.commons.io.filefilter.FileFilterUtils.sizeFileFilter,1
org.apache.commons.io.filefilter.FileFilterUtils.sizeFileFilter,1
org.apache.commons.io.filefilter.FileFilterUtils.sizeRangeFileFilter,3
org.apache.commons.io.filefilter.FileFilterUtils.suffixFileFilter,1
org.apache.commons.io.filefilter.FileFilterUtils.suffixFileFilter,1
org.apache.commons.io.filefilter.FileFilterUtils.toList,9
org.apache.commons.io.filefilter.FileFilterUtils.trueFileFilter,1
org.apache.commons.io.filefilter.HiddenFileFilter.HiddenFileFilter,0
org.apache.commons.io.filefilter.HiddenFileFilter.accept,2
org.apache.commons.io.filefilter.MagicNumberFileFilter.MagicNumberFileFilter,1
org.apache.commons.io.filefilter.MagicNumberFileFilter.MagicNumberFileFilter,10
org.apache.commons.io.filefilter.MagicNumberFileFilter.MagicNumberFileFilter,1
org.apache.commons.io.filefilter.MagicNumberFileFilter.MagicNumberFileFilter,9
org.apache.commons.io.filefilter.MagicNumberFileFilter.accept,18
org.apache.commons.io.filefilter.MagicNumberFileFilter.toString,8
org.apache.commons.io.filefilter.NameFileFilter.NameFileFilter,1
org.apache.commons.io.filefilter.NameFileFilter.NameFileFilter,1
org.apache.commons.io.filefilter.NameFileFilter.NameFileFilter,1
org.apache.commons.io.filefilter.NameFileFilter.NameFileFilter,4
org.apache.commons.io.filefilter.NameFileFilter.NameFileFilter,5
org.apache.commons.io.filefilter.NameFileFilter.NameFileFilter,6
org.apache.commons.io.filefilter.NameFileFilter.accept,7
org.apache.commons.io.filefilter.NameFileFilter.accept,5
org.apache.commons.io.filefilter.NameFileFilter.toString,12
org.apache.commons.io.filefilter.NotFileFilter.NotFileFilter,3
org.apache.commons.io.filefilter.NotFileFilter.accept,2
org.apache.commons.io.filefilter.NotFileFilter.accept,2
org.apache.commons.io.filefilter.NotFileFilter.toString,2
org.apache.commons.io.filefilter.OrFileFilter.OrFileFilter,1
org.apache.commons.io.filefilter.OrFileFilter.OrFileFilter,3
org.apache.commons.io.filefilter.OrFileFilter.OrFileFilter,5
org.apache.commons.io.filefilter.OrFileFilter.accept,5
org.apache.commons.io.filefilter.OrFileFilter.accept,5
org.apache.commons.io.filefilter.OrFileFilter.addFileFilter,1
org.apache.commons.io.filefilter.OrFileFilter.getFileFilters,2
org.apache.commons.io.filefilter.OrFileFilter.removeFileFilter,2
org.apache.commons.io.filefilter.OrFileFilter.setFileFilters,2
org.apache.commons.io.filefilter.OrFileFilter.toString,16
org.apache.commons.io.filefilter.PrefixFileFilter.PrefixFileFilter,1
org.apache.commons.io.filefilter.PrefixFileFilter.PrefixFileFilter,1
org.apache.commons.io.filefilter.PrefixFileFilter.PrefixFileFilter,1
org.apache.commons.io.filefilter.PrefixFileFilter.PrefixFileFilter,4
org.apache.commons.io.filefilter.PrefixFileFilter.PrefixFileFilter,5
org.apache.commons.io.filefilter.PrefixFileFilter.PrefixFileFilter,6
org.apache.commons.io.filefilter.PrefixFileFilter.accept,7
org.apache.commons.io.filefilter.PrefixFileFilter.accept,5
org.apache.commons.io.filefilter.PrefixFileFilter.toString,12
org.apache.commons.io.filefilter.RegexFileFilter.RegexFileFilter,4
org.apache.commons.io.filefilter.RegexFileFilter.RegexFileFilter,3
org.apache.commons.io.filefilter.RegexFileFilter.RegexFileFilter,4
org.apache.commons.io.filefilter.RegexFileFilter.RegexFileFilter,8
org.apache.commons.io.filefilter.RegexFileFilter.accept,3
org.apache.commons.io.filefilter.SizeFileFilter.SizeFileFilter,1
org.apache.commons.io.filefilter.SizeFileFilter.SizeFileFilter,4
org.apache.commons.io.filefilter.SizeFileFilter.accept,3
org.apache.commons.io.filefilter.SizeFileFilter.toString,2
org.apache.commons.io.filefilter.SuffixFileFilter.SuffixFileFilter,1
org.apache.commons.io.filefilter.SuffixFileFilter.SuffixFileFilter,1
org.apache.commons.io.filefilter.SuffixFileFilter.SuffixFileFilter,1
org.apache.commons.io.filefilter.SuffixFileFilter.SuffixFileFilter,4
org.apache.commons.io.filefilter.SuffixFileFilter.SuffixFileFilter,5
org.apache.commons.io.filefilter.SuffixFileFilter.SuffixFileFilter,6
org.apache.commons.io.filefilter.SuffixFileFilter.accept,7
org.apache.commons.io.filefilter.SuffixFileFilter.accept,5
org.apache.commons.io.filefilter.SuffixFileFilter.toString,12
org.apache.commons.io.filefilter.TrueFileFilter.TrueFileFilter,0
org.apache.commons.io.filefilter.TrueFileFilter.accept,1
org.apache.commons.io.filefilter.TrueFileFilter.accept,1
org.apache.commons.io.filefilter.WildcardFileFilter.WildcardFileFilter,1
org.apache.commons.io.filefilter.WildcardFileFilter.WildcardFileFilter,1
org.apache.commons.io.filefilter.WildcardFileFilter.WildcardFileFilter,1
org.apache.commons.io.filefilter.WildcardFileFilter.WildcardFileFilter,4
org.apache.commons.io.filefilter.WildcardFileFilter.WildcardFileFilter,5
org.apache.commons.io.filefilter.WildcardFileFilter.WildcardFileFilter,6
org.apache.commons.io.filefilter.WildcardFileFilter.accept,7
org.apache.commons.io.filefilter.WildcardFileFilter.accept,5
org.apache.commons.io.filefilter.WildcardFileFilter.toString,12
org.apache.commons.io.filefilter.WildcardFilter.WildcardFilter,3
org.apache.commons.io.filefilter.WildcardFilter.WildcardFilter,4
org.apache.commons.io.filefilter.WildcardFilter.WildcardFilter,5
org.apache.commons.io.filefilter.WildcardFilter.accept,9
org.apache.commons.io.filefilter.WildcardFilter.accept,8
org.apache.commons.io.input.AutoCloseInputStream.AutoCloseInputStream,1
org.apache.commons.io.input.AutoCloseInputStream.afterRead,2
org.apache.commons.io.input.AutoCloseInputStream.close,2
org.apache.commons.io.input.AutoCloseInputStream.finalize,1
org.apache.commons.io.input.BOMInputStream.BOMInputStream,1
org.apache.commons.io.input.BOMInputStream.BOMInputStream,1
org.apache.commons.io.input.BOMInputStream.BOMInputStream,6
org.apache.commons.io.input.BOMInputStream.BOMInputStream,1
org.apache.commons.io.input.BOMInputStream.find,5
org.apache.commons.io.input.BOMInputStream.getBOM,22
org.apache.commons.io.input.BOMInputStream.getBOMCharsetName,3
org.apache.commons.io.input.BOMInputStream.hasBOM,2
org.apache.commons.io.input.BOMInputStream.hasBOM,6
org.apache.commons.io.input.BOMInputStream.mark,3
org.apache.commons.io.input.BOMInputStream.matches,10
org.apache.commons.io.input.BOMInputStream.read,4
org.apache.commons.io.input.BOMInputStream.read,2
org.apache.commons.io.input.BOMInputStream.read,13
org.apache.commons.io.input.BOMInputStream.readFirstBytes,3
org.apache.commons.io.input.BOMInputStream.reset,4
org.apache.commons.io.input.BOMInputStream.skip,5
org.apache.commons.io.input.BoundedInputStream.BoundedInputStream,1
org.apache.commons.io.input.BoundedInputStream.BoundedInputStream,2
org.apache.commons.io.input.BoundedInputStream.available,4
org.apache.commons.io.input.BoundedInputStream.close,2
org.apache.commons.io.input.BoundedInputStream.isPropagateClose,1
org.apache.commons.io.input.BoundedInputStream.mark,2
org.apache.commons.io.input.BoundedInputStream.markSupported,2
org.apache.commons.io.input.BoundedInputStream.read,6
org.apache.commons.io.input.BoundedInputStream.read,2
org.apache.commons.io.input.BoundedInputStream.read,10
org.apache.commons.io.input.BoundedInputStream.reset,2
org.apache.commons.io.input.BoundedInputStream.setPropagateClose,1
org.apache.commons.io.input.BoundedInputStream.skip,6
org.apache.commons.io.input.BoundedInputStream.toString,2
org.apache.commons.io.input.BrokenInputStream.BrokenInputStream,1
org.apache.commons.io.input.BrokenInputStream.BrokenInputStream,1
org.apache.commons.io.input.BrokenInputStream.available,1
org.apache.commons.io.input.BrokenInputStream.close,1
org.apache.commons.io.input.BrokenInputStream.read,1
org.apache.commons.io.input.BrokenInputStream.reset,1
org.apache.commons.io.input.BrokenInputStream.skip,1
org.apache.commons.io.input.CharSequenceInputStream.CharSequenceInputStream,1
org.apache.commons.io.input.CharSequenceInputStream.CharSequenceInputStream,1
org.apache.commons.io.input.CharSequenceInputStream.CharSequenceInputStream,11
org.apache.commons.io.input.CharSequenceInputStream.CharSequenceInputStream,2
org.apache.commons.io.input.CharSequenceInputStream.available,2
org.apache.commons.io.input.CharSequenceInputStream.close,0
org.apache.commons.io.input.CharSequenceInputStream.fillBuffer,7
org.apache.commons.io.input.CharSequenceInputStream.mark,2
org.apache.commons.io.input.CharSequenceInputStream.markSupported,1
org.apache.commons.io.input.CharSequenceInputStream.read,10
org.apache.commons.io.input.CharSequenceInputStream.read,2
org.apache.commons.io.input.CharSequenceInputStream.read,28
org.apache.commons.io.input.CharSequenceInputStream.reset,3
org.apache.commons.io.input.CharSequenceInputStream.skip,7
org.apache.commons.io.input.CharSequenceReader.CharSequenceReader,1
org.apache.commons.io.input.CharSequenceReader.close,2
org.apache.commons.io.input.CharSequenceReader.mark,1
org.apache.commons.io.input.CharSequenceReader.markSupported,1
org.apache.commons.io.input.CharSequenceReader.read,6
org.apache.commons.io.input.CharSequenceReader.read,17
org.apache.commons.io.input.CharSequenceReader.reset,1
org.apache.commons.io.input.CharSequenceReader.skip,11
org.apache.commons.io.input.CharSequenceReader.toString,2
org.apache.commons.io.input.ClassLoaderObjectInputStream.ClassLoaderObjectInputStream,2
org.apache.commons.io.input.ClassLoaderObjectInputStream.resolveClass,6
org.apache.commons.io.input.ClassLoaderObjectInputStream.resolveProxyClass,10
org.apache.commons.io.input.CloseShieldInputStream.CloseShieldInputStream,1
org.apache.commons.io.input.CloseShieldInputStream.close,1
org.apache.commons.io.input.ClosedInputStream.read,1
org.apache.commons.io.input.CountingInputStream.CountingInputStream,1
org.apache.commons.io.input.CountingInputStream.afterRead,2
org.apache.commons.io.input.CountingInputStream.getByteCount,1
org.apache.commons.io.input.CountingInputStream.getCount,5
org.apache.commons.io.input.CountingInputStream.resetByteCount,3
org.apache.commons.io.input.CountingInputStream.resetCount,5
org.apache.commons.io.input.CountingInputStream.skip,3
org.apache.commons.io.input.DemuxInputStream.bindStream,4
org.apache.commons.io.input.DemuxInputStream.close,4
org.apache.commons.io.input.DemuxInputStream.read,6
org.apache.commons.io.input.NullInputStream.NullInputStream,1
org.apache.commons.io.input.NullInputStream.NullInputStream,3
org.apache.commons.io.input.NullInputStream.available,6
org.apache.commons.io.input.NullInputStream.close,3
org.apache.commons.io.input.NullInputStream.doEndOfFile,4
org.apache.commons.io.input.NullInputStream.getPosition,1
org.apache.commons.io.input.NullInputStream.getSize,1
org.apache.commons.io.input.NullInputStream.mark,4
org.apache.commons.io.input.NullInputStream.markSupported,1
org.apache.commons.io.input.NullInputStream.processByte,1
org.apache.commons.io.input.NullInputStream.processBytes,0
org.apache.commons.io.input.NullInputStream.read,8
org.apache.commons.io.input.NullInputStream.read,2
org.apache.commons.io.input.NullInputStream.read,12
org.apache.commons.io.input.NullInputStream.reset,8
org.apache.commons.io.input.NullInputStream.skip,11
org.apache.commons.io.input.NullReader.NullReader,1
org.apache.commons.io.input.NullReader.NullReader,3
org.apache.commons.io.input.NullReader.close,3
org.apache.commons.io.input.NullReader.doEndOfFile,4
org.apache.commons.io.input.NullReader.getPosition,1
org.apache.commons.io.input.NullReader.getSize,1
org.apache.commons.io.input.NullReader.mark,4
org.apache.commons.io.input.NullReader.markSupported,1
org.apache.commons.io.input.NullReader.processChar,1
org.apache.commons.io.input.NullReader.processChars,0
org.apache.commons.io.input.NullReader.read,8
org.apache.commons.io.input.NullReader.read,2
org.apache.commons.io.input.NullReader.read,12
org.apache.commons.io.input.NullReader.reset,8
org.apache.commons.io.input.NullReader.skip,11
org.apache.commons.io.input.ProxyInputStream.ProxyInputStream,1
org.apache.commons.io.input.ProxyInputStream.afterRead,0
org.apache.commons.io.input.ProxyInputStream.available,5
org.apache.commons.io.input.ProxyInputStream.beforeRead,0
org.apache.commons.io.input.ProxyInputStream.close,4
org.apache.commons.io.input.ProxyInputStream.handleIOException,1
org.apache.commons.io.input.ProxyInputStream.mark,1
org.apache.commons.io.input.ProxyInputStream.markSupported,2
org.apache.commons.io.input.ProxyInputStream.read,9
org.apache.commons.io.input.ProxyInputStream.read,9
org.apache.commons.io.input.ProxyInputStream.read,9
org.apache.commons.io.input.ProxyInputStream.reset,4
org.apache.commons.io.input.ProxyInputStream.skip,6
org.apache.commons.io.input.ProxyReader.ProxyReader,1
org.apache.commons.io.input.ProxyReader.afterRead,0
org.apache.commons.io.input.ProxyReader.beforeRead,0
org.apache.commons.io.input.ProxyReader.close,4
org.apache.commons.io.input.ProxyReader.handleIOException,1
org.apache.commons.io.input.ProxyReader.mark,4
org.apache.commons.io.input.ProxyReader.markSupported,2
org.apache.commons.io.input.ProxyReader.read,9
org.apache.commons.io.input.ProxyReader.read,10
org.apache.commons.io.input.ProxyReader.read,9
org.apache.commons.io.input.ProxyReader.read,9
org.apache.commons.io.input.ProxyReader.ready,6
org.apache.commons.io.input.ProxyReader.reset,4
org.apache.commons.io.input.ProxyReader.skip,6
org.apache.commons.io.input.ReaderInputStream.ReaderInputStream,2
org.apache.commons.io.input.ReaderInputStream.ReaderInputStream,1
org.apache.commons.io.input.ReaderInputStream.ReaderInputStream,1
org.apache.commons.io.input.ReaderInputStream.ReaderInputStream,1
org.apache.commons.io.input.ReaderInputStream.ReaderInputStream,8
org.apache.commons.io.input.ReaderInputStream.ReaderInputStream,4
org.apache.commons.io.input.ReaderInputStream.ReaderInputStream,2
org.apache.commons.io.input.ReaderInputStream.close,1
org.apache.commons.io.input.ReaderInputStream.fillBuffer,17
org.apache.commons.io.input.ReaderInputStream.read,9
org.apache.commons.io.input.ReaderInputStream.read,2
org.apache.commons.io.input.ReaderInputStream.read,22
org.apache.commons.io.input.ReversedLinesFileReader.ReversedLinesFileReader,3
org.apache.commons.io.input.ReversedLinesFileReader.ReversedLinesFileReader,39
org.apache.commons.io.input.ReversedLinesFileReader.ReversedLinesFileReader,2
org.apache.commons.io.input.ReversedLinesFileReader.close,1
org.apache.commons.io.input.ReversedLinesFileReader.readLine,15
org.apache.commons.io.input.ReversedLinesFileReader.FilePart.FilePart,14
org.apache.commons.io.input.ReversedLinesFileReader.FilePart.createLeftOver,6
org.apache.commons.io.input.ReversedLinesFileReader.FilePart.getNewLineMatchByteCount,9
org.apache.commons.io.input.ReversedLinesFileReader.FilePart.readLine,28
org.apache.commons.io.input.ReversedLinesFileReader.FilePart.rollOver,7
org.apache.commons.io.input.SwappedDataInputStream.SwappedDataInputStream,1
org.apache.commons.io.input.SwappedDataInputStream.readBoolean,2
org.apache.commons.io.input.SwappedDataInputStream.readByte,2
org.apache.commons.io.input.SwappedDataInputStream.readChar,2
org.apache.commons.io.input.SwappedDataInputStream.readDouble,2
org.apache.commons.io.input.SwappedDataInputStream.readFloat,2
org.apache.commons.io.input.SwappedDataInputStream.readFully,1
org.apache.commons.io.input.SwappedDataInputStream.readFully,8
org.apache.commons.io.input.SwappedDataInputStream.readInt,2
org.apache.commons.io.input.SwappedDataInputStream.readLine,1
org.apache.commons.io.input.SwappedDataInputStream.readLong,2
org.apache.commons.io.input.SwappedDataInputStream.readShort,2
org.apache.commons.io.input.SwappedDataInputStream.readUTF,1
org.apache.commons.io.input.SwappedDataInputStream.readUnsignedByte,2
org.apache.commons.io.input.SwappedDataInputStream.readUnsignedShort,2
org.apache.commons.io.input.SwappedDataInputStream.skipBytes,2
org.apache.commons.io.input.TaggedInputStream.TaggedInputStream,1
org.apache.commons.io.input.TaggedInputStream.handleIOException,1
org.apache.commons.io.input.TaggedInputStream.isCauseOf,2
org.apache.commons.io.input.TaggedInputStream.throwIfCauseOf,1
org.apache.commons.io.input.Tailer.Tailer,1
org.apache.commons.io.input.Tailer.Tailer,1
org.apache.commons.io.input.Tailer.Tailer,5
org.apache.commons.io.input.Tailer.create,2
org.apache.commons.io.input.Tailer.create,2
org.apache.commons.io.input.Tailer.create,5
org.apache.commons.io.input.Tailer.getDelay,1
org.apache.commons.io.input.Tailer.getFile,1
org.apache.commons.io.input.Tailer.readLine,18
org.apache.commons.io.input.Tailer.readLines,12
org.apache.commons.io.input.Tailer.run,51
org.apache.commons.io.input.Tailer.stop,1
org.apache.commons.io.input.TailerListenerAdapter.fileNotFound,0
org.apache.commons.io.input.TailerListenerAdapter.fileRotated,0
org.apache.commons.io.input.TailerListenerAdapter.handle,0
org.apache.commons.io.input.TailerListenerAdapter.handle,0
org.apache.commons.io.input.TailerListenerAdapter.init,0
org.apache.commons.io.input.TeeInputStream.TeeInputStream,1
org.apache.commons.io.input.TeeInputStream.TeeInputStream,3
org.apache.commons.io.input.TeeInputStream.close,4
org.apache.commons.io.input.TeeInputStream.read,4
org.apache.commons.io.input.TeeInputStream.read,4
org.apache.commons.io.input.TeeInputStream.read,4
org.apache.commons.io.input.XmlStreamReader.XmlStreamReader,1
org.apache.commons.io.input.XmlStreamReader.XmlStreamReader,1
org.apache.commons.io.input.XmlStreamReader.XmlStreamReader,2
org.apache.commons.io.input.XmlStreamReader.XmlStreamReader,14
org.apache.commons.io.input.XmlStreamReader.XmlStreamReader,1
org.apache.commons.io.input.XmlStreamReader.XmlStreamReader,1
org.apache.commons.io.input.XmlStreamReader.XmlStreamReader,6
org.apache.commons.io.input.XmlStreamReader.XmlStreamReader,1
org.apache.commons.io.input.XmlStreamReader.XmlStreamReader,6
org.apache.commons.io.input.XmlStreamReader.calculateHttpEncoding,36
org.apache.commons.io.input.XmlStreamReader.calculateRawEncoding,40
org.apache.commons.io.input.XmlStreamReader.close,1
org.apache.commons.io.input.XmlStreamReader.doHttpStream,14
org.apache.commons.io.input.XmlStreamReader.doLenientDetection,22
org.apache.commons.io.input.XmlStreamReader.doRawStream,14
org.apache.commons.io.input.XmlStreamReader.getContentTypeEncoding,15
org.apache.commons.io.input.XmlStreamReader.getContentTypeMime,11
org.apache.commons.io.input.XmlStreamReader.getDefaultEncoding,1
org.apache.commons.io.input.XmlStreamReader.getEncoding,1
org.apache.commons.io.input.XmlStreamReader.getXmlProlog,45
org.apache.commons.io.input.XmlStreamReader.isAppXml,6
org.apache.commons.io.input.XmlStreamReader.isTextXml,5
org.apache.commons.io.input.XmlStreamReader.read,2
org.apache.commons.io.input.XmlStreamReaderException.XmlStreamReaderException,1
org.apache.commons.io.input.XmlStreamReaderException.XmlStreamReaderException,6
org.apache.commons.io.input.XmlStreamReaderException.getBomEncoding,1
org.apache.commons.io.input.XmlStreamReaderException.getContentTypeEncoding,1
org.apache.commons.io.input.XmlStreamReaderException.getContentTypeMime,1
org.apache.commons.io.input.XmlStreamReaderException.getXmlEncoding,1
org.apache.commons.io.input.XmlStreamReaderException.getXmlGuessEncoding,1
org.apache.commons.io.monitor.FileAlterationListenerAdaptor.onDirectoryChange,0
org.apache.commons.io.monitor.FileAlterationListenerAdaptor.onDirectoryCreate,0
org.apache.commons.io.monitor.FileAlterationListenerAdaptor.onDirectoryDelete,0
org.apache.commons.io.monitor.FileAlterationListenerAdaptor.onFileChange,0
org.apache.commons.io.monitor.FileAlterationListenerAdaptor.onFileCreate,0
org.apache.commons.io.monitor.FileAlterationListenerAdaptor.onFileDelete,0
org.apache.commons.io.monitor.FileAlterationListenerAdaptor.onStart,0
org.apache.commons.io.monitor.FileAlterationListenerAdaptor.onStop,0
org.apache.commons.io.monitor.FileAlterationMonitor.FileAlterationMonitor,1
org.apache.commons.io.monitor.FileAlterationMonitor.FileAlterationMonitor,1
org.apache.commons.io.monitor.FileAlterationMonitor.FileAlterationMonitor,4
org.apache.commons.io.monitor.FileAlterationMonitor.addObserver,2
org.apache.commons.io.monitor.FileAlterationMonitor.getInterval,1
org.apache.commons.io.monitor.FileAlterationMonitor.getObservers,1
org.apache.commons.io.monitor.FileAlterationMonitor.removeObserver,3
org.apache.commons.io.monitor.FileAlterationMonitor.run,8
org.apache.commons.io.monitor.FileAlterationMonitor.setThreadFactory,1
org.apache.commons.io.monitor.FileAlterationMonitor.start,10
org.apache.commons.io.monitor.FileAlterationMonitor.stop,1
org.apache.commons.io.monitor.FileAlterationMonitor.stop,10
org.apache.commons.io.monitor.FileAlterationObserver.FileAlterationObserver,1
org.apache.commons.io.monitor.FileAlterationObserver.FileAlterationObserver,1
org.apache.commons.io.monitor.FileAlterationObserver.FileAlterationObserver,1
org.apache.commons.io.monitor.FileAlterationObserver.FileAlterationObserver,1
org.apache.commons.io.monitor.FileAlterationObserver.FileAlterationObserver,1
org.apache.commons.io.monitor.FileAlterationObserver.FileAlterationObserver,1
org.apache.commons.io.monitor.FileAlterationObserver.FileAlterationObserver,14
org.apache.commons.io.monitor.FileAlterationObserver.addListener,2
org.apache.commons.io.monitor.FileAlterationObserver.checkAndNotify,15
org.apache.commons.io.monitor.FileAlterationObserver.checkAndNotify,28
org.apache.commons.io.monitor.FileAlterationObserver.createFileEntry,12
org.apache.commons.io.monitor.FileAlterationObserver.destroy,0
org.apache.commons.io.monitor.FileAlterationObserver.doCreate,11
org.apache.commons.io.monitor.FileAlterationObserver.doDelete,7
org.apache.commons.io.monitor.FileAlterationObserver.doMatch,7
org.apache.commons.io.monitor.FileAlterationObserver.getDirectory,2
org.apache.commons.io.monitor.FileAlterationObserver.getFileFilter,1
org.apache.commons.io.monitor.FileAlterationObserver.getListeners,1
org.apache.commons.io.monitor.FileAlterationObserver.initialize,11
org.apache.commons.io.monitor.FileAlterationObserver.listFiles,11
org.apache.commons.io.monitor.FileAlterationObserver.removeListener,3
org.apache.commons.io.monitor.FileAlterationObserver.toString,19
org.apache.commons.io.monitor.FileEntry.FileEntry,1
org.apache.commons.io.monitor.FileEntry.FileEntry,6
org.apache.commons.io.monitor.FileEntry.getChildren,1
org.apache.commons.io.monitor.FileEntry.getFile,1
org.apache.commons.io.monitor.FileEntry.getLastModified,1
org.apache.commons.io.monitor.FileEntry.getLength,1
org.apache.commons.io.monitor.FileEntry.getLevel,2
org.apache.commons.io.monitor.FileEntry.getName,1
org.apache.commons.io.monitor.FileEntry.getParent,1
org.apache.commons.io.monitor.FileEntry.isDirectory,1
org.apache.commons.io.monitor.FileEntry.isExists,1
org.apache.commons.io.monitor.FileEntry.newChildInstance,1
org.apache.commons.io.monitor.FileEntry.refresh,15
org.apache.commons.io.monitor.FileEntry.setChildren,1
org.apache.commons.io.monitor.FileEntry.setDirectory,1
org.apache.commons.io.monitor.FileEntry.setExists,1
org.apache.commons.io.monitor.FileEntry.setLastModified,1
org.apache.commons.io.monitor.FileEntry.setLength,1
org.apache.commons.io.monitor.FileEntry.setName,1
org.apache.commons.io.output.BrokenOutputStream.BrokenOutputStream,1
org.apache.commons.io.output.BrokenOutputStream.BrokenOutputStream,1
org.apache.commons.io.output.BrokenOutputStream.close,1
org.apache.commons.io.output.BrokenOutputStream.flush,1
org.apache.commons.io.output.BrokenOutputStream.write,1
org.apache.commons.io.output.ByteArrayOutputStream.ByteArrayOutputStream,1
org.apache.commons.io.output.ByteArrayOutputStream.ByteArrayOutputStream,3
org.apache.commons.io.output.ByteArrayOutputStream.close,0
org.apache.commons.io.output.ByteArrayOutputStream.needNewBuffer,16
org.apache.commons.io.output.ByteArrayOutputStream.reset,5
org.apache.commons.io.output.ByteArrayOutputStream.size,1
org.apache.commons.io.output.ByteArrayOutputStream.toBufferedInputStream,14
org.apache.commons.io.output.ByteArrayOutputStream.toBufferedInputStream,4
org.apache.commons.io.output.ByteArrayOutputStream.toByteArray,14
org.apache.commons.io.output.ByteArrayOutputStream.toString,2
org.apache.commons.io.output.ByteArrayOutputStream.toString,2
org.apache.commons.io.output.ByteArrayOutputStream.write,14
org.apache.commons.io.output.ByteArrayOutputStream.write,16
org.apache.commons.io.output.ByteArrayOutputStream.write,6
org.apache.commons.io.output.ByteArrayOutputStream.writeTo,8
org.apache.commons.io.output.CloseShieldOutputStream.CloseShieldOutputStream,1
org.apache.commons.io.output.CloseShieldOutputStream.close,1
org.apache.commons.io.output.ClosedOutputStream.write,1
org.apache.commons.io.output.CountingOutputStream.CountingOutputStream,1
org.apache.commons.io.output.CountingOutputStream.beforeWrite,1
org.apache.commons.io.output.CountingOutputStream.getByteCount,1
org.apache.commons.io.output.CountingOutputStream.getCount,5
org.apache.commons.io.output.CountingOutputStream.resetByteCount,3
org.apache.commons.io.output.CountingOutputStream.resetCount,5
org.apache.commons.io.output.DeferredFileOutputStream.DeferredFileOutputStream,1
org.apache.commons.io.output.DeferredFileOutputStream.DeferredFileOutputStream,3
org.apache.commons.io.output.DeferredFileOutputStream.DeferredFileOutputStream,7
org.apache.commons.io.output.DeferredFileOutputStream.close,1
org.apache.commons.io.output.DeferredFileOutputStream.getData,4
org.apache.commons.io.output.DeferredFileOutputStream.getFile,1
org.apache.commons.io.output.DeferredFileOutputStream.getStream,1
org.apache.commons.io.output.DeferredFileOutputStream.isInMemory,2
org.apache.commons.io.output.DeferredFileOutputStream.thresholdReached,7
org.apache.commons.io.output.DeferredFileOutputStream.writeTo,10
org.apache.commons.io.output.DemuxOutputStream.bindStream,4
org.apache.commons.io.output.DemuxOutputStream.close,4
org.apache.commons.io.output.DemuxOutputStream.flush,4
org.apache.commons.io.output.DemuxOutputStream.write,4
org.apache.commons.io.output.FileWriterWithEncoding.FileWriterWithEncoding,1
org.apache.commons.io.output.FileWriterWithEncoding.FileWriterWithEncoding,1
org.apache.commons.io.output.FileWriterWithEncoding.FileWriterWithEncoding,1
org.apache.commons.io.output.FileWriterWithEncoding.FileWriterWithEncoding,1
org.apache.commons.io.output.FileWriterWithEncoding.FileWriterWithEncoding,1
org.apache.commons.io.output.FileWriterWithEncoding.FileWriterWithEncoding,1
org.apache.commons.io.output.FileWriterWithEncoding.FileWriterWithEncoding,1
org.apache.commons.io.output.FileWriterWithEncoding.FileWriterWithEncoding,1
org.apache.commons.io.output.FileWriterWithEncoding.FileWriterWithEncoding,1
org.apache.commons.io.output.FileWriterWithEncoding.FileWriterWithEncoding,3
org.apache.commons.io.output.FileWriterWithEncoding.FileWriterWithEncoding,3
org.apache.commons.io.output.FileWriterWithEncoding.FileWriterWithEncoding,3
org.apache.commons.io.output.FileWriterWithEncoding.close,1
org.apache.commons.io.output.FileWriterWithEncoding.flush,1
org.apache.commons.io.output.FileWriterWithEncoding.initWriter,28
org.apache.commons.io.output.FileWriterWithEncoding.write,1
org.apache.commons.io.output.FileWriterWithEncoding.write,1
org.apache.commons.io.output.FileWriterWithEncoding.write,1
org.apache.commons.io.output.FileWriterWithEncoding.write,1
org.apache.commons.io.output.FileWriterWithEncoding.write,1
org.apache.commons.io.output.LockableFileWriter.LockableFileWriter,1
org.apache.commons.io.output.LockableFileWriter.LockableFileWriter,1
org.apache.commons.io.output.LockableFileWriter.LockableFileWriter,1
org.apache.commons.io.output.LockableFileWriter.LockableFileWriter,1
org.apache.commons.io.output.LockableFileWriter.LockableFileWriter,21
org.apache.commons.io.output.LockableFileWriter.LockableFileWriter,2
org.apache.commons.io.output.LockableFileWriter.LockableFileWriter,1
org.apache.commons.io.output.LockableFileWriter.LockableFileWriter,1
org.apache.commons.io.output.LockableFileWriter.LockableFileWriter,1
org.apache.commons.io.output.LockableFileWriter.LockableFileWriter,2
org.apache.commons.io.output.LockableFileWriter.close,4
org.apache.commons.io.output.LockableFileWriter.createLock,5
org.apache.commons.io.output.LockableFileWriter.flush,1
org.apache.commons.io.output.LockableFileWriter.initWriter,24
org.apache.commons.io.output.LockableFileWriter.testLockDir,8
org.apache.commons.io.output.LockableFileWriter.write,1
org.apache.commons.io.output.LockableFileWriter.write,1
org.apache.commons.io.output.LockableFileWriter.write,1
org.apache.commons.io.output.LockableFileWriter.write,1
org.apache.commons.io.output.LockableFileWriter.write,1
org.apache.commons.io.output.NullOutputStream.write,0
org.apache.commons.io.output.NullOutputStream.write,0
org.apache.commons.io.output.NullOutputStream.write,0
org.apache.commons.io.output.NullWriter.NullWriter,0
org.apache.commons.io.output.NullWriter.append,1
org.apache.commons.io.output.NullWriter.append,1
org.apache.commons.io.output.NullWriter.append,1
org.apache.commons.io.output.NullWriter.close,0
org.apache.commons.io.output.NullWriter.flush,0
org.apache.commons.io.output.NullWriter.write,0
org.apache.commons.io.output.NullWriter.write,0
org.apache.commons.io.output.NullWriter.write,0
org.apache.commons.io.output.NullWriter.write,0
org.apache.commons.io.output.NullWriter.write,0
org.apache.commons.io.output.ProxyOutputStream.ProxyOutputStream,1
org.apache.commons.io.output.ProxyOutputStream.afterWrite,0
org.apache.commons.io.output.ProxyOutputStream.beforeWrite,0
org.apache.commons.io.output.ProxyOutputStream.close,4
org.apache.commons.io.output.ProxyOutputStream.flush,4
org.apache.commons.io.output.ProxyOutputStream.handleIOException,1
org.apache.commons.io.output.ProxyOutputStream.write,7
org.apache.commons.io.output.ProxyOutputStream.write,6
org.apache.commons.io.output.ProxyOutputStream.write,6
org.apache.commons.io.output.ProxyWriter.ProxyWriter,1
org.apache.commons.io.output.ProxyWriter.afterWrite,0
org.apache.commons.io.output.ProxyWriter.append,11
org.apache.commons.io.output.ProxyWriter.append,7
org.apache.commons.io.output.ProxyWriter.append,7
org.apache.commons.io.output.ProxyWriter.beforeWrite,0
org.apache.commons.io.output.ProxyWriter.close,4
org.apache.commons.io.output.ProxyWriter.flush,4
org.apache.commons.io.output.ProxyWriter.handleIOException,1
org.apache.commons.io.output.ProxyWriter.write,10
org.apache.commons.io.output.ProxyWriter.write,6
org.apache.commons.io.output.ProxyWriter.write,9
org.apache.commons.io.output.ProxyWriter.write,6
org.apache.commons.io.output.ProxyWriter.write,6
org.apache.commons.io.output.StringBuilderWriter.StringBuilderWriter,1
org.apache.commons.io.output.StringBuilderWriter.StringBuilderWriter,1
org.apache.commons.io.output.StringBuilderWriter.StringBuilderWriter,1
org.apache.commons.io.output.StringBuilderWriter.append,2
org.apache.commons.io.output.StringBuilderWriter.append,2
org.apache.commons.io.output.StringBuilderWriter.append,2
org.apache.commons.io.output.StringBuilderWriter.close,0
org.apache.commons.io.output.StringBuilderWriter.flush,0
org.apache.commons.io.output.StringBuilderWriter.getBuilder,1
org.apache.commons.io.output.StringBuilderWriter.toString,2
org.apache.commons.io.output.StringBuilderWriter.write,2
org.apache.commons.io.output.StringBuilderWriter.write,2
org.apache.commons.io.output.TaggedOutputStream.TaggedOutputStream,1
org.apache.commons.io.output.TaggedOutputStream.handleIOException,1
org.apache.commons.io.output.TaggedOutputStream.isCauseOf,2
org.apache.commons.io.output.TaggedOutputStream.throwIfCauseOf,1
org.apache.commons.io.output.TeeOutputStream.TeeOutputStream,2
org.apache.commons.io.output.TeeOutputStream.close,3
org.apache.commons.io.output.TeeOutputStream.flush,1
org.apache.commons.io.output.TeeOutputStream.write,1
org.apache.commons.io.output.TeeOutputStream.write,1
org.apache.commons.io.output.TeeOutputStream.write,1
org.apache.commons.io.output.ThresholdingOutputStream.ThresholdingOutputStream,1
org.apache.commons.io.output.ThresholdingOutputStream.checkThreshold,3
org.apache.commons.io.output.ThresholdingOutputStream.close,5
org.apache.commons.io.output.ThresholdingOutputStream.flush,2
org.apache.commons.io.output.ThresholdingOutputStream.getByteCount,1
org.apache.commons.io.output.ThresholdingOutputStream.getThreshold,1
org.apache.commons.io.output.ThresholdingOutputStream.isThresholdExceeded,1
org.apache.commons.io.output.ThresholdingOutputStream.resetByteCount,2
org.apache.commons.io.output.ThresholdingOutputStream.write,4
org.apache.commons.io.output.ThresholdingOutputStream.write,4
org.apache.commons.io.output.ThresholdingOutputStream.write,4
org.apache.commons.io.output.WriterOutputStream.WriterOutputStream,2
org.apache.commons.io.output.WriterOutputStream.WriterOutputStream,1
org.apache.commons.io.output.WriterOutputStream.WriterOutputStream,1
org.apache.commons.io.output.WriterOutputStream.WriterOutputStream,1
org.apache.commons.io.output.WriterOutputStream.WriterOutputStream,5
org.apache.commons.io.output.WriterOutputStream.WriterOutputStream,5
org.apache.commons.io.output.WriterOutputStream.WriterOutputStream,2
org.apache.commons.io.output.WriterOutputStream.close,3
org.apache.commons.io.output.WriterOutputStream.flush,2
org.apache.commons.io.output.WriterOutputStream.flushOutput,6
org.apache.commons.io.output.WriterOutputStream.processInput,13
org.apache.commons.io.output.WriterOutputStream.write,1
org.apache.commons.io.output.WriterOutputStream.write,10
org.apache.commons.io.output.WriterOutputStream.write,1
org.apache.commons.io.output.XmlStreamWriter.XmlStreamWriter,1
org.apache.commons.io.output.XmlStreamWriter.XmlStreamWriter,1
org.apache.commons.io.output.XmlStreamWriter.XmlStreamWriter,2
org.apache.commons.io.output.XmlStreamWriter.XmlStreamWriter,1
org.apache.commons.io.output.XmlStreamWriter.close,6
org.apache.commons.io.output.XmlStreamWriter.detectEncoding,39
org.apache.commons.io.output.XmlStreamWriter.flush,2
org.apache.commons.io.output.XmlStreamWriter.getDefaultEncoding,1
org.apache.commons.io.output.XmlStreamWriter.getEncoding,1
org.apache.commons.io.output.XmlStreamWriter.write,3
