org.apache.http.auth.AUTH.AUTH,0
org.apache.http.auth.AuthOption.AuthOption,7
org.apache.http.auth.AuthOption.getAuthScheme,1
org.apache.http.auth.AuthOption.getCredentials,1
org.apache.http.auth.AuthOption.toString,2
org.apache.http.auth.AuthSchemeRegistry.AuthSchemeRegistry,2
org.apache.http.auth.AuthSchemeRegistry.getAuthScheme,9
org.apache.http.auth.AuthSchemeRegistry.getSchemeNames,2
org.apache.http.auth.AuthSchemeRegistry.register,6
org.apache.http.auth.AuthSchemeRegistry.setItems,4
org.apache.http.auth.AuthSchemeRegistry.unregister,4
org.apache.http.auth.AuthScope.AuthScope,1
org.apache.http.auth.AuthScope.AuthScope,3
org.apache.http.auth.AuthScope.AuthScope,1
org.apache.http.auth.AuthScope.AuthScope,1
org.apache.http.auth.AuthScope.AuthScope,6
org.apache.http.auth.AuthScope.AuthScope,11
org.apache.http.auth.AuthScope.equals,11
org.apache.http.auth.AuthScope.getHost,1
org.apache.http.auth.AuthScope.getPort,1
org.apache.http.auth.AuthScope.getRealm,1
org.apache.http.auth.AuthScope.getScheme,1
org.apache.http.auth.AuthScope.hashCode,10
org.apache.http.auth.AuthScope.match,21
org.apache.http.auth.AuthScope.toString,18
org.apache.http.auth.AuthState.AuthState,2
org.apache.http.auth.AuthState.getAuthOptions,1
org.apache.http.auth.AuthState.getAuthScheme,1
org.apache.http.auth.AuthState.getAuthScope,1
org.apache.http.auth.AuthState.getCredentials,1
org.apache.http.auth.AuthState.getState,1
org.apache.http.auth.AuthState.hasAuthOptions,2
org.apache.http.auth.AuthState.invalidate,1
org.apache.http.auth.AuthState.isValid,1
org.apache.http.auth.AuthState.reset,5
org.apache.http.auth.AuthState.setAuthScheme,4
org.apache.http.auth.AuthState.setAuthScope,1
org.apache.http.auth.AuthState.setCredentials,1
org.apache.http.auth.AuthState.setState,1
org.apache.http.auth.AuthState.toString,13
org.apache.http.auth.AuthState.update,6
org.apache.http.auth.AuthState.update,7
org.apache.http.auth.AuthenticationException.AuthenticationException,1
org.apache.http.auth.AuthenticationException.AuthenticationException,1
org.apache.http.auth.AuthenticationException.AuthenticationException,1
org.apache.http.auth.BasicUserPrincipal.BasicUserPrincipal,4
org.apache.http.auth.BasicUserPrincipal.equals,8
org.apache.http.auth.BasicUserPrincipal.getName,1
org.apache.http.auth.BasicUserPrincipal.hashCode,4
org.apache.http.auth.BasicUserPrincipal.toString,6
org.apache.http.auth.InvalidCredentialsException.InvalidCredentialsException,1
org.apache.http.auth.InvalidCredentialsException.InvalidCredentialsException,1
org.apache.http.auth.InvalidCredentialsException.InvalidCredentialsException,1
org.apache.http.auth.MalformedChallengeException.MalformedChallengeException,1
org.apache.http.auth.MalformedChallengeException.MalformedChallengeException,1
org.apache.http.auth.MalformedChallengeException.MalformedChallengeException,1
org.apache.http.auth.NTCredentials.NTCredentials,23
org.apache.http.auth.NTCredentials.NTCredentials,9
org.apache.http.auth.NTCredentials.equals,9
org.apache.http.auth.NTCredentials.getDomain,2
org.apache.http.auth.NTCredentials.getPassword,1
org.apache.http.auth.NTCredentials.getUserName,2
org.apache.http.auth.NTCredentials.getUserPrincipal,1
org.apache.http.auth.NTCredentials.getWorkstation,1
org.apache.http.auth.NTCredentials.hashCode,6
org.apache.http.auth.NTCredentials.toString,8
org.apache.http.auth.NTUserPrincipal.NTUserPrincipal,17
org.apache.http.auth.NTUserPrincipal.equals,9
org.apache.http.auth.NTUserPrincipal.getDomain,1
org.apache.http.auth.NTUserPrincipal.getName,1
org.apache.http.auth.NTUserPrincipal.getUsername,1
org.apache.http.auth.NTUserPrincipal.hashCode,6
org.apache.http.auth.NTUserPrincipal.toString,1
org.apache.http.auth.UsernamePasswordCredentials.UsernamePasswordCredentials,12
org.apache.http.auth.UsernamePasswordCredentials.UsernamePasswordCredentials,5
org.apache.http.auth.UsernamePasswordCredentials.equals,8
org.apache.http.auth.UsernamePasswordCredentials.getPassword,1
org.apache.http.auth.UsernamePasswordCredentials.getUserName,2
org.apache.http.auth.UsernamePasswordCredentials.getUserPrincipal,1
org.apache.http.auth.UsernamePasswordCredentials.hashCode,2
org.apache.http.auth.UsernamePasswordCredentials.toString,2
org.apache.http.auth.params.AuthParamBean.AuthParamBean,1
org.apache.http.auth.params.AuthParamBean.setCredentialCharset,1
org.apache.http.auth.params.AuthParams.AuthParams,1
org.apache.http.auth.params.AuthParams.getCredentialCharset,7
org.apache.http.auth.params.AuthParams.setCredentialCharset,3
org.apache.http.client.CircularRedirectException.CircularRedirectException,1
org.apache.http.client.CircularRedirectException.CircularRedirectException,1
org.apache.http.client.CircularRedirectException.CircularRedirectException,1
org.apache.http.client.ClientProtocolException.ClientProtocolException,1
org.apache.http.client.ClientProtocolException.ClientProtocolException,1
org.apache.http.client.ClientProtocolException.ClientProtocolException,1
org.apache.http.client.ClientProtocolException.ClientProtocolException,2
org.apache.http.client.HttpResponseException.HttpResponseException,2
org.apache.http.client.HttpResponseException.getStatusCode,1
org.apache.http.client.NonRepeatableRequestException.NonRepeatableRequestException,1
org.apache.http.client.NonRepeatableRequestException.NonRepeatableRequestException,1
org.apache.http.client.NonRepeatableRequestException.NonRepeatableRequestException,1
org.apache.http.client.RedirectException.RedirectException,1
org.apache.http.client.RedirectException.RedirectException,1
org.apache.http.client.RedirectException.RedirectException,1
org.apache.http.client.entity.DecompressingEntity.DecompressingEntity,1
org.apache.http.client.entity.DecompressingEntity.getContent,10
org.apache.http.client.entity.DecompressingEntity.writeTo,13
org.apache.http.client.entity.DeflateDecompressingEntity.DeflateDecompressingEntity,1
org.apache.http.client.entity.DeflateDecompressingEntity.getContentEncoding,1
org.apache.http.client.entity.DeflateDecompressingEntity.getContentLength,1
org.apache.http.client.entity.DeflateDecompressingEntity.getDecompressingInputStream,29
org.apache.http.client.entity.GzipDecompressingEntity.GzipDecompressingEntity,1
org.apache.http.client.entity.GzipDecompressingEntity.getContentEncoding,1
org.apache.http.client.entity.GzipDecompressingEntity.getContentLength,1
org.apache.http.client.entity.GzipDecompressingEntity.getDecompressingInputStream,1
org.apache.http.client.entity.UrlEncodedFormEntity.UrlEncodedFormEntity,1
org.apache.http.client.entity.UrlEncodedFormEntity.UrlEncodedFormEntity,1
org.apache.http.client.entity.UrlEncodedFormEntity.UrlEncodedFormEntity,3
org.apache.http.client.entity.UrlEncodedFormEntity.UrlEncodedFormEntity,3
org.apache.http.client.entity.UrlEncodedFormEntity.create,5
org.apache.http.client.entity.UrlEncodedFormEntity.create,5
org.apache.http.client.methods.HttpDelete.HttpDelete,1
org.apache.http.client.methods.HttpDelete.HttpDelete,2
org.apache.http.client.methods.HttpDelete.HttpDelete,3
org.apache.http.client.methods.HttpDelete.getMethod,1
org.apache.http.client.methods.HttpEntityEnclosingRequestBase.HttpEntityEnclosingRequestBase,1
org.apache.http.client.methods.HttpEntityEnclosingRequestBase.clone,5
org.apache.http.client.methods.HttpEntityEnclosingRequestBase.expectContinue,5
org.apache.http.client.methods.HttpEntityEnclosingRequestBase.getEntity,1
org.apache.http.client.methods.HttpEntityEnclosingRequestBase.setEntity,1
org.apache.http.client.methods.HttpGet.HttpGet,1
org.apache.http.client.methods.HttpGet.HttpGet,2
org.apache.http.client.methods.HttpGet.HttpGet,3
org.apache.http.client.methods.HttpGet.getMethod,1
org.apache.http.client.methods.HttpHead.HttpHead,1
org.apache.http.client.methods.HttpHead.HttpHead,2
org.apache.http.client.methods.HttpHead.HttpHead,3
org.apache.http.client.methods.HttpHead.getMethod,1
org.apache.http.client.methods.HttpOptions.HttpOptions,1
org.apache.http.client.methods.HttpOptions.HttpOptions,2
org.apache.http.client.methods.HttpOptions.HttpOptions,3
org.apache.http.client.methods.HttpOptions.getAllowedMethods,15
org.apache.http.client.methods.HttpOptions.getMethod,1
org.apache.http.client.methods.HttpPost.HttpPost,1
org.apache.http.client.methods.HttpPost.HttpPost,2
org.apache.http.client.methods.HttpPost.HttpPost,3
org.apache.http.client.methods.HttpPost.getMethod,1
org.apache.http.client.methods.HttpPut.HttpPut,1
org.apache.http.client.methods.HttpPut.HttpPut,2
org.apache.http.client.methods.HttpPut.HttpPut,3
org.apache.http.client.methods.HttpPut.getMethod,1
org.apache.http.client.methods.HttpRequestBase.HttpRequestBase,2
org.apache.http.client.methods.HttpRequestBase.abort,8
org.apache.http.client.methods.HttpRequestBase.cleanup,8
org.apache.http.client.methods.HttpRequestBase.clone,10
org.apache.http.client.methods.HttpRequestBase.getProtocolVersion,3
org.apache.http.client.methods.HttpRequestBase.getRequestLine,14
org.apache.http.client.methods.HttpRequestBase.getURI,1
org.apache.http.client.methods.HttpRequestBase.isAborted,1
org.apache.http.client.methods.HttpRequestBase.releaseConnection,1
org.apache.http.client.methods.HttpRequestBase.reset,6
org.apache.http.client.methods.HttpRequestBase.setConnectionRequest,7
org.apache.http.client.methods.HttpRequestBase.setReleaseTrigger,7
org.apache.http.client.methods.HttpRequestBase.setURI,1
org.apache.http.client.methods.HttpTrace.HttpTrace,1
org.apache.http.client.methods.HttpTrace.HttpTrace,2
org.apache.http.client.methods.HttpTrace.HttpTrace,3
org.apache.http.client.methods.HttpTrace.getMethod,1
org.apache.http.client.params.AuthPolicy.AuthPolicy,1
org.apache.http.client.params.ClientParamBean.ClientParamBean,1
org.apache.http.client.params.ClientParamBean.setAllowCircularRedirects,1
org.apache.http.client.params.ClientParamBean.setConnectionManagerFactory,1
org.apache.http.client.params.ClientParamBean.setConnectionManagerFactoryClassName,1
org.apache.http.client.params.ClientParamBean.setConnectionManagerTimeout,1
org.apache.http.client.params.ClientParamBean.setCookiePolicy,1
org.apache.http.client.params.ClientParamBean.setDefaultHeaders,1
org.apache.http.client.params.ClientParamBean.setDefaultHost,1
org.apache.http.client.params.ClientParamBean.setHandleAuthentication,1
org.apache.http.client.params.ClientParamBean.setHandleRedirects,1
org.apache.http.client.params.ClientParamBean.setMaxRedirects,1
org.apache.http.client.params.ClientParamBean.setRejectRelativeRedirect,1
org.apache.http.client.params.ClientParamBean.setVirtualHost,1
org.apache.http.client.params.CookiePolicy.CookiePolicy,1
org.apache.http.client.params.HttpClientParams.HttpClientParams,1
org.apache.http.client.params.HttpClientParams.getConnectionManagerTimeout,9
org.apache.http.client.params.HttpClientParams.getCookiePolicy,7
org.apache.http.client.params.HttpClientParams.isAuthenticating,4
org.apache.http.client.params.HttpClientParams.isRedirecting,4
org.apache.http.client.params.HttpClientParams.setAuthenticating,3
org.apache.http.client.params.HttpClientParams.setConnectionManagerTimeout,3
org.apache.http.client.params.HttpClientParams.setCookiePolicy,3
org.apache.http.client.params.HttpClientParams.setRedirecting,3
org.apache.http.client.protocol.ClientContextConfigurer.ClientContextConfigurer,3
org.apache.http.client.protocol.ClientContextConfigurer.setAuthSchemePref,1
org.apache.http.client.protocol.ClientContextConfigurer.setAuthSchemeRegistry,1
org.apache.http.client.protocol.ClientContextConfigurer.setCookieSpecRegistry,1
org.apache.http.client.protocol.ClientContextConfigurer.setCookieStore,1
org.apache.http.client.protocol.ClientContextConfigurer.setCredentialsProvider,1
org.apache.http.client.protocol.RequestAcceptEncoding.process,1
org.apache.http.client.protocol.RequestAddCookies.RequestAddCookies,1
org.apache.http.client.protocol.RequestAddCookies.process,111
org.apache.http.client.protocol.RequestAuthCache.RequestAuthCache,1
org.apache.http.client.protocol.RequestAuthCache.doPreemptiveAuth,12
org.apache.http.client.protocol.RequestAuthCache.process,45
org.apache.http.client.protocol.RequestAuthenticationBase.RequestAuthenticationBase,1
org.apache.http.client.protocol.RequestAuthenticationBase.authenticate,7
org.apache.http.client.protocol.RequestAuthenticationBase.ensureAuthScheme,2
org.apache.http.client.protocol.RequestAuthenticationBase.process,52
org.apache.http.client.protocol.RequestClientConnControl.RequestClientConnControl,1
org.apache.http.client.protocol.RequestClientConnControl.process,28
org.apache.http.client.protocol.RequestDefaultHeaders.RequestDefaultHeaders,1
org.apache.http.client.protocol.RequestDefaultHeaders.process,14
org.apache.http.client.protocol.RequestProxyAuthentication.RequestProxyAuthentication,1
org.apache.http.client.protocol.RequestProxyAuthentication.process,27
org.apache.http.client.protocol.RequestTargetAuthentication.RequestTargetAuthentication,1
org.apache.http.client.protocol.RequestTargetAuthentication.process,23
org.apache.http.client.protocol.ResponseAuthCache.ResponseAuthCache,1
org.apache.http.client.protocol.ResponseAuthCache.cache,5
org.apache.http.client.protocol.ResponseAuthCache.isCachable,10
org.apache.http.client.protocol.ResponseAuthCache.process,61
org.apache.http.client.protocol.ResponseAuthCache.uncache,5
org.apache.http.client.protocol.ResponseContentEncoding.process,28
org.apache.http.client.protocol.ResponseProcessCookies.ResponseProcessCookies,1
org.apache.http.client.protocol.ResponseProcessCookies.process,27
org.apache.http.client.protocol.ResponseProcessCookies.processCookies,24
org.apache.http.client.utils.CloneUtils.CloneUtils,0
org.apache.http.client.utils.CloneUtils.clone,25
org.apache.http.client.utils.HttpClientUtils.HttpClientUtils,0
org.apache.http.client.utils.HttpClientUtils.closeQuietly,7
org.apache.http.client.utils.HttpClientUtils.closeQuietly,3
org.apache.http.client.utils.JdkIdn.JdkIdn,11
org.apache.http.client.utils.JdkIdn.toUnicode,11
org.apache.http.client.utils.Punycode.toUnicode,2
org.apache.http.client.utils.Rfc3492Idn.adapt,9
org.apache.http.client.utils.Rfc3492Idn.decode,48
org.apache.http.client.utils.Rfc3492Idn.digit,7
org.apache.http.client.utils.Rfc3492Idn.toUnicode,18
org.apache.http.client.utils.URIBuilder.URIBuilder,2
org.apache.http.client.utils.URIBuilder.URIBuilder,2
org.apache.http.client.utils.URIBuilder.URIBuilder,2
org.apache.http.client.utils.URIBuilder.addParameter,5
org.apache.http.client.utils.URIBuilder.build,7
org.apache.http.client.utils.URIBuilder.digestURI,19
org.apache.http.client.utils.URIBuilder.formatQuery,4
org.apache.http.client.utils.URIBuilder.parseQuery,5
org.apache.http.client.utils.URIBuilder.removeQuery,3
org.apache.http.client.utils.URIBuilder.setFragment,2
org.apache.http.client.utils.URIBuilder.setHost,4
org.apache.http.client.utils.URIBuilder.setParameter,16
org.apache.http.client.utils.URIBuilder.setPath,3
org.apache.http.client.utils.URIBuilder.setPort,4
org.apache.http.client.utils.URIBuilder.setQuery,4
org.apache.http.client.utils.URIBuilder.setScheme,2
org.apache.http.client.utils.URIBuilder.setUserInfo,4
org.apache.http.client.utils.URIBuilder.setUserInfo,2
org.apache.http.client.utils.URIUtils.URIUtils,0
org.apache.http.client.utils.URIUtils.createURI,22
org.apache.http.client.utils.URIUtils.extractHost,37
org.apache.http.client.utils.URIUtils.normalizePath,13
org.apache.http.client.utils.URIUtils.removeDotSegments,32
org.apache.http.client.utils.URIUtils.resolve,3
org.apache.http.client.utils.URIUtils.resolve,26
org.apache.http.client.utils.URIUtils.resolveReferenceStartingWithQueryString,9
org.apache.http.client.utils.URIUtils.rewriteURI,2
org.apache.http.client.utils.URIUtils.rewriteURI,18
org.apache.http.client.utils.URLEncodedUtils.decode,7
org.apache.http.client.utils.URLEncodedUtils.encode,7
org.apache.http.client.utils.URLEncodedUtils.format,17
org.apache.http.client.utils.URLEncodedUtils.format,17
org.apache.http.client.utils.URLEncodedUtils.isEncoded,12
org.apache.http.client.utils.URLEncodedUtils.parse,27
org.apache.http.client.utils.URLEncodedUtils.parse,8
org.apache.http.client.utils.URLEncodedUtils.parse,23
org.apache.http.client.utils.URLEncodedUtils.parse,15
org.apache.http.conn.BasicEofSensorWatcher.BasicEofSensorWatcher,4
org.apache.http.conn.BasicEofSensorWatcher.eofDetected,7
org.apache.http.conn.BasicEofSensorWatcher.streamAbort,2
org.apache.http.conn.BasicEofSensorWatcher.streamClosed,7
org.apache.http.conn.BasicManagedEntity.BasicManagedEntity,5
org.apache.http.conn.BasicManagedEntity.abortConnection,5
org.apache.http.conn.BasicManagedEntity.consumeContent,1
org.apache.http.conn.BasicManagedEntity.ensureConsumed,8
org.apache.http.conn.BasicManagedEntity.eofDetected,7
org.apache.http.conn.BasicManagedEntity.getContent,2
org.apache.http.conn.BasicManagedEntity.isRepeatable,1
org.apache.http.conn.BasicManagedEntity.releaseConnection,1
org.apache.http.conn.BasicManagedEntity.releaseManagedConnection,5
org.apache.http.conn.BasicManagedEntity.streamAbort,3
org.apache.http.conn.BasicManagedEntity.streamClosed,7
org.apache.http.conn.BasicManagedEntity.writeTo,1
org.apache.http.conn.ConnectTimeoutException.ConnectTimeoutException,1
org.apache.http.conn.ConnectTimeoutException.ConnectTimeoutException,1
org.apache.http.conn.ConnectionPoolTimeoutException.ConnectionPoolTimeoutException,1
org.apache.http.conn.ConnectionPoolTimeoutException.ConnectionPoolTimeoutException,1
org.apache.http.conn.EofSensorInputStream.EofSensorInputStream,5
org.apache.http.conn.EofSensorInputStream.abortConnection,2
org.apache.http.conn.EofSensorInputStream.available,10
org.apache.http.conn.EofSensorInputStream.checkAbort,10
org.apache.http.conn.EofSensorInputStream.checkClose,10
org.apache.http.conn.EofSensorInputStream.checkEOF,10
org.apache.http.conn.EofSensorInputStream.close,2
org.apache.http.conn.EofSensorInputStream.isReadAllowed,3
org.apache.http.conn.EofSensorInputStream.read,11
org.apache.http.conn.EofSensorInputStream.read,11
org.apache.http.conn.EofSensorInputStream.read,11
org.apache.http.conn.EofSensorInputStream.releaseConnection,1
org.apache.http.conn.HttpHostConnectException.HttpHostConnectException,3
org.apache.http.conn.HttpHostConnectException.getHost,1
org.apache.http.conn.HttpInetSocketAddress.HttpInetSocketAddress,4
org.apache.http.conn.HttpInetSocketAddress.getHttpHost,1
org.apache.http.conn.HttpInetSocketAddress.toString,3
org.apache.http.conn.MultihomePlainSocketFactory.MultihomePlainSocketFactory,1
org.apache.http.conn.MultihomePlainSocketFactory.connectSocket,33
org.apache.http.conn.MultihomePlainSocketFactory.createSocket,1
org.apache.http.conn.MultihomePlainSocketFactory.getSocketFactory,1
org.apache.http.conn.MultihomePlainSocketFactory.isSecure,9
org.apache.http.conn.params.ConnConnectionParamBean.ConnConnectionParamBean,1
org.apache.http.conn.params.ConnConnectionParamBean.setMaxStatusLineGarbage,1
org.apache.http.conn.params.ConnManagerParamBean.ConnManagerParamBean,1
org.apache.http.conn.params.ConnManagerParamBean.setConnectionsPerRoute,1
org.apache.http.conn.params.ConnManagerParamBean.setMaxTotalConnections,1
org.apache.http.conn.params.ConnManagerParamBean.setTimeout,1
org.apache.http.conn.params.ConnManagerParams.getMaxConnectionsPerRoute,7
org.apache.http.conn.params.ConnManagerParams.getMaxTotalConnections,4
org.apache.http.conn.params.ConnManagerParams.getTimeout,4
org.apache.http.conn.params.ConnManagerParams.setMaxConnectionsPerRoute,3
org.apache.http.conn.params.ConnManagerParams.setMaxTotalConnections,3
org.apache.http.conn.params.ConnManagerParams.setTimeout,3
org.apache.http.conn.params.ConnManagerParams..getMaxForRoute,1
org.apache.http.conn.params.ConnPerRouteBean.ConnPerRouteBean,1
org.apache.http.conn.params.ConnPerRouteBean.ConnPerRouteBean,3
org.apache.http.conn.params.ConnPerRouteBean.getDefaultMax,1
org.apache.http.conn.params.ConnPerRouteBean.getDefaultMaxPerRoute,1
org.apache.http.conn.params.ConnPerRouteBean.getMaxForRoute,8
org.apache.http.conn.params.ConnPerRouteBean.setDefaultMaxPerRoute,3
org.apache.http.conn.params.ConnPerRouteBean.setMaxForRoute,6
org.apache.http.conn.params.ConnPerRouteBean.setMaxForRoutes,4
org.apache.http.conn.params.ConnPerRouteBean.toString,2
org.apache.http.conn.params.ConnRouteParamBean.ConnRouteParamBean,1
org.apache.http.conn.params.ConnRouteParamBean.setDefaultProxy,1
org.apache.http.conn.params.ConnRouteParamBean.setForcedRoute,1
org.apache.http.conn.params.ConnRouteParamBean.setLocalAddress,1
org.apache.http.conn.params.ConnRouteParams.ConnRouteParams,0
org.apache.http.conn.params.ConnRouteParams.getDefaultProxy,8
org.apache.http.conn.params.ConnRouteParams.getForcedRoute,8
org.apache.http.conn.params.ConnRouteParams.getLocalAddress,5
org.apache.http.conn.params.ConnRouteParams.setDefaultProxy,3
org.apache.http.conn.params.ConnRouteParams.setForcedRoute,3
org.apache.http.conn.params.ConnRouteParams.setLocalAddress,3
org.apache.http.conn.routing.BasicRouteDirector.directStep,19
org.apache.http.conn.routing.BasicRouteDirector.firstStep,2
org.apache.http.conn.routing.BasicRouteDirector.nextStep,14
org.apache.http.conn.routing.BasicRouteDirector.proxiedStep,42
org.apache.http.conn.routing.HttpRoute.HttpRoute,1
org.apache.http.conn.routing.HttpRoute.HttpRoute,4
org.apache.http.conn.routing.HttpRoute.HttpRoute,16
org.apache.http.conn.routing.HttpRoute.HttpRoute,2
org.apache.http.conn.routing.HttpRoute.HttpRoute,2
org.apache.http.conn.routing.HttpRoute.HttpRoute,1
org.apache.http.conn.routing.HttpRoute.clone,1
org.apache.http.conn.routing.HttpRoute.equals,9
org.apache.http.conn.routing.HttpRoute.getHopCount,1
org.apache.http.conn.routing.HttpRoute.getHopTarget,11
org.apache.http.conn.routing.HttpRoute.getLayerType,1
org.apache.http.conn.routing.HttpRoute.getLocalAddress,1
org.apache.http.conn.routing.HttpRoute.getProxyHost,1
org.apache.http.conn.routing.HttpRoute.getTargetHost,1
org.apache.http.conn.routing.HttpRoute.getTunnelType,1
org.apache.http.conn.routing.HttpRoute.hashCode,16
org.apache.http.conn.routing.HttpRoute.isLayered,1
org.apache.http.conn.routing.HttpRoute.isSecure,1
org.apache.http.conn.routing.HttpRoute.isTunnelled,1
org.apache.http.conn.routing.HttpRoute.toChain,3
org.apache.http.conn.routing.HttpRoute.toChain,8
org.apache.http.conn.routing.HttpRoute.toString,19
org.apache.http.conn.routing.RouteTracker.RouteTracker,6
org.apache.http.conn.routing.RouteTracker.RouteTracker,3
org.apache.http.conn.routing.RouteTracker.clone,1
org.apache.http.conn.routing.RouteTracker.connectProxy,7
org.apache.http.conn.routing.RouteTracker.connectTarget,4
org.apache.http.conn.routing.RouteTracker.equals,9
org.apache.http.conn.routing.RouteTracker.getHopCount,6
org.apache.http.conn.routing.RouteTracker.getHopTarget,11
org.apache.http.conn.routing.RouteTracker.getLayerType,1
org.apache.http.conn.routing.RouteTracker.getLocalAddress,1
org.apache.http.conn.routing.RouteTracker.getProxyHost,1
org.apache.http.conn.routing.RouteTracker.getTargetHost,1
org.apache.http.conn.routing.RouteTracker.getTunnelType,1
org.apache.http.conn.routing.RouteTracker.hashCode,19
org.apache.http.conn.routing.RouteTracker.isConnected,1
org.apache.http.conn.routing.RouteTracker.isLayered,1
org.apache.http.conn.routing.RouteTracker.isSecure,1
org.apache.http.conn.routing.RouteTracker.isTunnelled,1
org.apache.http.conn.routing.RouteTracker.layerProtocol,4
org.apache.http.conn.routing.RouteTracker.reset,5
org.apache.http.conn.routing.RouteTracker.toRoute,1
org.apache.http.conn.routing.RouteTracker.toString,25
org.apache.http.conn.routing.RouteTracker.tunnelProxy,11
org.apache.http.conn.routing.RouteTracker.tunnelTarget,6
org.apache.http.conn.scheme.LayeredSocketFactoryAdaptor.LayeredSocketFactoryAdaptor,2
org.apache.http.conn.scheme.LayeredSocketFactoryAdaptor.createSocket,2
org.apache.http.conn.scheme.PlainSocketFactory.PlainSocketFactory,2
org.apache.http.conn.scheme.PlainSocketFactory.PlainSocketFactory,2
org.apache.http.conn.scheme.PlainSocketFactory.connectSocket,22
org.apache.http.conn.scheme.PlainSocketFactory.connectSocket,14
org.apache.http.conn.scheme.PlainSocketFactory.createSocket,1
org.apache.http.conn.scheme.PlainSocketFactory.createSocket,1
org.apache.http.conn.scheme.PlainSocketFactory.getSocketFactory,1
org.apache.http.conn.scheme.PlainSocketFactory.isSecure,6
org.apache.http.conn.scheme.Scheme.Scheme,17
org.apache.http.conn.scheme.Scheme.Scheme,14
org.apache.http.conn.scheme.Scheme.equals,7
org.apache.http.conn.scheme.Scheme.getDefaultPort,1
org.apache.http.conn.scheme.Scheme.getName,1
org.apache.http.conn.scheme.Scheme.getSchemeSocketFactory,1
org.apache.http.conn.scheme.Scheme.getSocketFactory,6
org.apache.http.conn.scheme.Scheme.hashCode,8
org.apache.http.conn.scheme.Scheme.isLayered,1
org.apache.http.conn.scheme.Scheme.resolvePort,1
org.apache.http.conn.scheme.Scheme.toString,9
org.apache.http.conn.scheme.SchemeLayeredSocketFactoryAdaptor.SchemeLayeredSocketFactoryAdaptor,2
org.apache.http.conn.scheme.SchemeLayeredSocketFactoryAdaptor.createLayeredSocket,2
org.apache.http.conn.scheme.SchemeLayeredSocketFactoryAdaptor2.SchemeLayeredSocketFactoryAdaptor2,2
org.apache.http.conn.scheme.SchemeLayeredSocketFactoryAdaptor2.connectSocket,2
org.apache.http.conn.scheme.SchemeLayeredSocketFactoryAdaptor2.createLayeredSocket,2
org.apache.http.conn.scheme.SchemeLayeredSocketFactoryAdaptor2.createSocket,2
org.apache.http.conn.scheme.SchemeLayeredSocketFactoryAdaptor2.isSecure,2
org.apache.http.conn.scheme.SchemeRegistry.SchemeRegistry,2
org.apache.http.conn.scheme.SchemeRegistry.get,5
org.apache.http.conn.scheme.SchemeRegistry.getScheme,5
org.apache.http.conn.scheme.SchemeRegistry.getScheme,5
org.apache.http.conn.scheme.SchemeRegistry.getSchemeNames,2
org.apache.http.conn.scheme.SchemeRegistry.register,6
org.apache.http.conn.scheme.SchemeRegistry.setItems,4
org.apache.http.conn.scheme.SchemeRegistry.unregister,5
org.apache.http.conn.scheme.SchemeSocketFactoryAdaptor.SchemeSocketFactoryAdaptor,2
org.apache.http.conn.scheme.SchemeSocketFactoryAdaptor.connectSocket,13
org.apache.http.conn.scheme.SchemeSocketFactoryAdaptor.createSocket,2
org.apache.http.conn.scheme.SchemeSocketFactoryAdaptor.equals,9
org.apache.http.conn.scheme.SchemeSocketFactoryAdaptor.getFactory,1
org.apache.http.conn.scheme.SchemeSocketFactoryAdaptor.hashCode,2
org.apache.http.conn.scheme.SchemeSocketFactoryAdaptor.isSecure,2
org.apache.http.conn.scheme.SocketFactoryAdaptor.SocketFactoryAdaptor,2
org.apache.http.conn.scheme.SocketFactoryAdaptor.connectSocket,10
org.apache.http.conn.scheme.SocketFactoryAdaptor.createSocket,3
org.apache.http.conn.scheme.SocketFactoryAdaptor.equals,9
org.apache.http.conn.scheme.SocketFactoryAdaptor.getFactory,1
org.apache.http.conn.scheme.SocketFactoryAdaptor.hashCode,2
org.apache.http.conn.scheme.SocketFactoryAdaptor.isSecure,2
org.apache.http.conn.ssl.AbstractVerifier.AbstractVerifier,1
org.apache.http.conn.ssl.AbstractVerifier.acceptableCountryWildcard,7
org.apache.http.conn.ssl.AbstractVerifier.countDots,8
org.apache.http.conn.ssl.AbstractVerifier.getCNs,21
org.apache.http.conn.ssl.AbstractVerifier.getDNSSubjectAlts,2
org.apache.http.conn.ssl.AbstractVerifier.getSubjectAlts,31
org.apache.http.conn.ssl.AbstractVerifier.isIPAddress,3
org.apache.http.conn.ssl.AbstractVerifier.verify,18
org.apache.http.conn.ssl.AbstractVerifier.verify,8
org.apache.http.conn.ssl.AbstractVerifier.verify,5
org.apache.http.conn.ssl.AbstractVerifier.verify,62
org.apache.http.conn.ssl.AllowAllHostnameVerifier.toString,1
org.apache.http.conn.ssl.AllowAllHostnameVerifier.verify,0
org.apache.http.conn.ssl.BrowserCompatHostnameVerifier.toString,1
org.apache.http.conn.ssl.BrowserCompatHostnameVerifier.verify,1
org.apache.http.conn.ssl.SSLSocketFactory.SSLSocketFactory,1
org.apache.http.conn.ssl.SSLSocketFactory.SSLSocketFactory,1
org.apache.http.conn.ssl.SSLSocketFactory.SSLSocketFactory,1
org.apache.http.conn.ssl.SSLSocketFactory.SSLSocketFactory,1
org.apache.http.conn.ssl.SSLSocketFactory.SSLSocketFactory,2
org.apache.http.conn.ssl.SSLSocketFactory.SSLSocketFactory,2
org.apache.http.conn.ssl.SSLSocketFactory.SSLSocketFactory,2
org.apache.http.conn.ssl.SSLSocketFactory.SSLSocketFactory,5
org.apache.http.conn.ssl.SSLSocketFactory.SSLSocketFactory,5
org.apache.http.conn.ssl.SSLSocketFactory.SSLSocketFactory,1
org.apache.http.conn.ssl.SSLSocketFactory.SSLSocketFactory,1
org.apache.http.conn.ssl.SSLSocketFactory.connectSocket,42
org.apache.http.conn.ssl.SSLSocketFactory.connectSocket,14
org.apache.http.conn.ssl.SSLSocketFactory.createDefaultSSLContext,5
org.apache.http.conn.ssl.SSLSocketFactory.createLayeredSocket,6
org.apache.http.conn.ssl.SSLSocketFactory.createLayeredSocket,6
org.apache.http.conn.ssl.SSLSocketFactory.createSSLContext,25
org.apache.http.conn.ssl.SSLSocketFactory.createSocket,4
org.apache.http.conn.ssl.SSLSocketFactory.createSocket,4
org.apache.http.conn.ssl.SSLSocketFactory.createSocket,2
org.apache.http.conn.ssl.SSLSocketFactory.createSystemSSLContext,5
org.apache.http.conn.ssl.SSLSocketFactory.createSystemSSLContext,113
org.apache.http.conn.ssl.SSLSocketFactory.getHostnameVerifier,1
org.apache.http.conn.ssl.SSLSocketFactory.getSocketFactory,2
org.apache.http.conn.ssl.SSLSocketFactory.getSystemSocketFactory,2
org.apache.http.conn.ssl.SSLSocketFactory.isSecure,8
org.apache.http.conn.ssl.SSLSocketFactory.prepareSocket,0
org.apache.http.conn.ssl.SSLSocketFactory.setHostnameVerifier,3
org.apache.http.conn.ssl.StrictHostnameVerifier.toString,1
org.apache.http.conn.ssl.StrictHostnameVerifier.verify,1
org.apache.http.conn.ssl.TrustManagerDecorator.TrustManagerDecorator,3
org.apache.http.conn.ssl.TrustManagerDecorator.checkClientTrusted,1
org.apache.http.conn.ssl.TrustManagerDecorator.checkServerTrusted,3
org.apache.http.conn.ssl.TrustManagerDecorator.getAcceptedIssuers,2
org.apache.http.conn.ssl.TrustSelfSignedStrategy.isTrusted,1
org.apache.http.conn.util.InetAddressUtils.InetAddressUtils,0
org.apache.http.conn.util.InetAddressUtils.isIPv4Address,3
org.apache.http.conn.util.InetAddressUtils.isIPv6Address,3
org.apache.http.conn.util.InetAddressUtils.isIPv6HexCompressedAddress,3
org.apache.http.conn.util.InetAddressUtils.isIPv6StdAddress,3
org.apache.http.cookie.CookieIdentityComparator.compare,33
org.apache.http.cookie.CookieOrigin.CookieOrigin,20
org.apache.http.cookie.CookieOrigin.getHost,1
org.apache.http.cookie.CookieOrigin.getPath,1
org.apache.http.cookie.CookieOrigin.getPort,1
org.apache.http.cookie.CookieOrigin.isSecure,1
org.apache.http.cookie.CookieOrigin.toString,12
org.apache.http.cookie.CookiePathComparator.compare,14
org.apache.http.cookie.CookiePathComparator.normalizePath,8
org.apache.http.cookie.CookieRestrictionViolationException.CookieRestrictionViolationException,1
org.apache.http.cookie.CookieRestrictionViolationException.CookieRestrictionViolationException,1
org.apache.http.cookie.CookieSpecRegistry.CookieSpecRegistry,2
org.apache.http.cookie.CookieSpecRegistry.getCookieSpec,2
org.apache.http.cookie.CookieSpecRegistry.getCookieSpec,9
org.apache.http.cookie.CookieSpecRegistry.getSpecNames,2
org.apache.http.cookie.CookieSpecRegistry.register,6
org.apache.http.cookie.CookieSpecRegistry.setItems,4
org.apache.http.cookie.CookieSpecRegistry.unregister,4
org.apache.http.cookie.MalformedCookieException.MalformedCookieException,1
org.apache.http.cookie.MalformedCookieException.MalformedCookieException,1
org.apache.http.cookie.MalformedCookieException.MalformedCookieException,1
org.apache.http.cookie.params.CookieSpecParamBean.CookieSpecParamBean,1
org.apache.http.cookie.params.CookieSpecParamBean.setDatePatterns,1
org.apache.http.cookie.params.CookieSpecParamBean.setSingleHeader,1
org.apache.http.impl.auth.AuthSchemeBase.AuthSchemeBase,1
org.apache.http.impl.auth.AuthSchemeBase.AuthSchemeBase,2
org.apache.http.impl.auth.AuthSchemeBase.authenticate,2
org.apache.http.impl.auth.AuthSchemeBase.getChallengeState,1
org.apache.http.impl.auth.AuthSchemeBase.isProxy,1
org.apache.http.impl.auth.AuthSchemeBase.processChallenge,46
org.apache.http.impl.auth.AuthSchemeBase.toString,6
org.apache.http.impl.auth.BasicScheme.BasicScheme,1
org.apache.http.impl.auth.BasicScheme.BasicScheme,2
org.apache.http.impl.auth.BasicScheme.authenticate,2
org.apache.http.impl.auth.BasicScheme.authenticate,10
org.apache.http.impl.auth.BasicScheme.authenticate,23
org.apache.http.impl.auth.BasicScheme.getSchemeName,1
org.apache.http.impl.auth.BasicScheme.isComplete,1
org.apache.http.impl.auth.BasicScheme.isConnectionBased,1
org.apache.http.impl.auth.BasicScheme.processChallenge,1
org.apache.http.impl.auth.BasicSchemeFactory.newInstance,1
org.apache.http.impl.auth.DigestScheme.DigestScheme,1
org.apache.http.impl.auth.DigestScheme.DigestScheme,2
org.apache.http.impl.auth.DigestScheme.authenticate,2
org.apache.http.impl.auth.DigestScheme.authenticate,28
org.apache.http.impl.auth.DigestScheme.createCnonce,5
org.apache.http.impl.auth.DigestScheme.createDigestHeader,195
org.apache.http.impl.auth.DigestScheme.createMessageDigest,5
org.apache.http.impl.auth.DigestScheme.encode,9
org.apache.http.impl.auth.DigestScheme.getA1,1
org.apache.http.impl.auth.DigestScheme.getA2,1
org.apache.http.impl.auth.DigestScheme.getCnonce,1
org.apache.http.impl.auth.DigestScheme.getSchemeName,1
org.apache.http.impl.auth.DigestScheme.isComplete,6
org.apache.http.impl.auth.DigestScheme.isConnectionBased,1
org.apache.http.impl.auth.DigestScheme.overrideParamter,2
org.apache.http.impl.auth.DigestScheme.processChallenge,1
org.apache.http.impl.auth.DigestSchemeFactory.newInstance,1
org.apache.http.impl.auth.GGSSchemeBase.GGSSchemeBase,1
org.apache.http.impl.auth.GGSSchemeBase.GGSSchemeBase,4
org.apache.http.impl.auth.GGSSchemeBase.authenticate,2
org.apache.http.impl.auth.GGSSchemeBase.authenticate,60
org.apache.http.impl.auth.GGSSchemeBase.generateGSSToken,14
org.apache.http.impl.auth.GGSSchemeBase.getManager,2
org.apache.http.impl.auth.GGSSchemeBase.isComplete,1
org.apache.http.impl.auth.GGSSchemeBase.parseChallenge,12
org.apache.http.impl.auth.HttpEntityDigester.HttpEntityDigester,3
org.apache.http.impl.auth.HttpEntityDigester.close,5
org.apache.http.impl.auth.HttpEntityDigester.getDigest,1
org.apache.http.impl.auth.HttpEntityDigester.write,3
org.apache.http.impl.auth.HttpEntityDigester.write,3
org.apache.http.impl.auth.KerberosScheme.KerberosScheme,1
org.apache.http.impl.auth.KerberosScheme.KerberosScheme,1
org.apache.http.impl.auth.KerberosScheme.authenticate,1
org.apache.http.impl.auth.KerberosScheme.generateToken,2
org.apache.http.impl.auth.KerberosScheme.getParameter,3
org.apache.http.impl.auth.KerberosScheme.getRealm,1
org.apache.http.impl.auth.KerberosScheme.getSchemeName,1
org.apache.http.impl.auth.KerberosScheme.isConnectionBased,1
org.apache.http.impl.auth.KerberosSchemeFactory.KerberosSchemeFactory,1
org.apache.http.impl.auth.KerberosSchemeFactory.KerberosSchemeFactory,2
org.apache.http.impl.auth.KerberosSchemeFactory.isStripPort,1
org.apache.http.impl.auth.KerberosSchemeFactory.newInstance,1
org.apache.http.impl.auth.NTLMEngineException.NTLMEngineException,1
org.apache.http.impl.auth.NTLMEngineException.NTLMEngineException,1
org.apache.http.impl.auth.NTLMEngineException.NTLMEngineException,1
org.apache.http.impl.auth.NTLMEngineImpl.F,1
org.apache.http.impl.auth.NTLMEngineImpl.G,1
org.apache.http.impl.auth.NTLMEngineImpl.H,1
org.apache.http.impl.auth.NTLMEngineImpl.convertDomain,2
org.apache.http.impl.auth.NTLMEngineImpl.convertHost,2
org.apache.http.impl.auth.NTLMEngineImpl.createBlob,26
org.apache.http.impl.auth.NTLMEngineImpl.createDESKey,13
org.apache.http.impl.auth.NTLMEngineImpl.generateType1Msg,2
org.apache.http.impl.auth.NTLMEngineImpl.generateType3Msg,7
org.apache.http.impl.auth.NTLMEngineImpl.getCredentialCharset,1
org.apache.http.impl.auth.NTLMEngineImpl.getLMResponse,4
org.apache.http.impl.auth.NTLMEngineImpl.getLMv2Response,4
org.apache.http.impl.auth.NTLMEngineImpl.getNTLM2SessionResponse,18
org.apache.http.impl.auth.NTLMEngineImpl.getNTLMResponse,4
org.apache.http.impl.auth.NTLMEngineImpl.getNTLMv2Response,6
org.apache.http.impl.auth.NTLMEngineImpl.getResponseFor,14
org.apache.http.impl.auth.NTLMEngineImpl.getType1Message,2
org.apache.http.impl.auth.NTLMEngineImpl.getType3Message,2
org.apache.http.impl.auth.NTLMEngineImpl.lmHash,29
org.apache.http.impl.auth.NTLMEngineImpl.lmResponse,28
org.apache.http.impl.auth.NTLMEngineImpl.lmv2Response,9
org.apache.http.impl.auth.NTLMEngineImpl.makeNTLM2RandomChallenge,6
org.apache.http.impl.auth.NTLMEngineImpl.makeRandomChallenge,5
org.apache.http.impl.auth.NTLMEngineImpl.ntlmHash,10
org.apache.http.impl.auth.NTLMEngineImpl.ntlmv2Hash,14
org.apache.http.impl.auth.NTLMEngineImpl.oddParity,7
org.apache.http.impl.auth.NTLMEngineImpl.readSecurityBuffer,9
org.apache.http.impl.auth.NTLMEngineImpl.readULong,3
org.apache.http.impl.auth.NTLMEngineImpl.readUShort,3
org.apache.http.impl.auth.NTLMEngineImpl.rotintlft,1
org.apache.http.impl.auth.NTLMEngineImpl.setCredentialCharset,1
org.apache.http.impl.auth.NTLMEngineImpl.stripDotSuffix,6
org.apache.http.impl.auth.NTLMEngineImpl.writeULong,4
org.apache.http.impl.auth.NTLMEngineImpl.HMACMD5.HMACMD5,25
org.apache.http.impl.auth.NTLMEngineImpl.HMACMD5.getOutput,5
org.apache.http.impl.auth.NTLMEngineImpl.HMACMD5.update,1
org.apache.http.impl.auth.NTLMEngineImpl.HMACMD5.update,1
org.apache.http.impl.auth.NTLMEngineImpl.MD4.MD4,0
org.apache.http.impl.auth.NTLMEngineImpl.MD4.getOutput,14
org.apache.http.impl.auth.NTLMEngineImpl.MD4.processBuffer,15
org.apache.http.impl.auth.NTLMEngineImpl.MD4.round1,48
org.apache.http.impl.auth.NTLMEngineImpl.MD4.round2,48
org.apache.http.impl.auth.NTLMEngineImpl.MD4.round3,48
org.apache.http.impl.auth.NTLMEngineImpl.MD4.update,14
org.apache.http.impl.auth.NTLMEngineImpl.NTLMMessage.NTLMMessage,0
org.apache.http.impl.auth.NTLMEngineImpl.NTLMMessage.NTLMMessage,17
org.apache.http.impl.auth.NTLMEngineImpl.NTLMMessage.addByte,2
org.apache.http.impl.auth.NTLMEngineImpl.NTLMMessage.addBytes,4
org.apache.http.impl.auth.NTLMEngineImpl.NTLMMessage.addULong,4
org.apache.http.impl.auth.NTLMEngineImpl.NTLMMessage.addUShort,2
org.apache.http.impl.auth.NTLMEngineImpl.NTLMMessage.getMessageLength,1
org.apache.http.impl.auth.NTLMEngineImpl.NTLMMessage.getPreambleLength,1
org.apache.http.impl.auth.NTLMEngineImpl.NTLMMessage.getResponse,11
org.apache.http.impl.auth.NTLMEngineImpl.NTLMMessage.prepareResponse,4
org.apache.http.impl.auth.NTLMEngineImpl.NTLMMessage.readByte,3
org.apache.http.impl.auth.NTLMEngineImpl.NTLMMessage.readBytes,3
org.apache.http.impl.auth.NTLMEngineImpl.NTLMMessage.readSecurityBuffer,2
org.apache.http.impl.auth.NTLMEngineImpl.NTLMMessage.readULong,2
org.apache.http.impl.auth.NTLMEngineImpl.NTLMMessage.readUShort,2
org.apache.http.impl.auth.NTLMEngineImpl.Type1Message.Type1Message,14
org.apache.http.impl.auth.NTLMEngineImpl.Type1Message.getResponse,12
org.apache.http.impl.auth.NTLMEngineImpl.Type2Message.Type2Message,26
org.apache.http.impl.auth.NTLMEngineImpl.Type2Message.getChallenge,1
org.apache.http.impl.auth.NTLMEngineImpl.Type2Message.getFlags,1
org.apache.http.impl.auth.NTLMEngineImpl.Type2Message.getTarget,1
org.apache.http.impl.auth.NTLMEngineImpl.Type2Message.getTargetInfo,1
org.apache.http.impl.auth.NTLMEngineImpl.Type3Message.Type3Message,38
org.apache.http.impl.auth.NTLMEngineImpl.Type3Message.getResponse,37
org.apache.http.impl.auth.NTLMScheme.NTLMScheme,6
org.apache.http.impl.auth.NTLMScheme.authenticate,31
org.apache.http.impl.auth.NTLMScheme.getParameter,1
org.apache.http.impl.auth.NTLMScheme.getRealm,1
org.apache.http.impl.auth.NTLMScheme.getSchemeName,1
org.apache.http.impl.auth.NTLMScheme.isComplete,1
org.apache.http.impl.auth.NTLMScheme.isConnectionBased,1
org.apache.http.impl.auth.NTLMScheme.parseChallenge,10
org.apache.http.impl.auth.NTLMSchemeFactory.newInstance,1
org.apache.http.impl.auth.NegotiateScheme.NegotiateScheme,1
org.apache.http.impl.auth.NegotiateScheme.NegotiateScheme,1
org.apache.http.impl.auth.NegotiateScheme.NegotiateScheme,2
org.apache.http.impl.auth.NegotiateScheme.authenticate,1
org.apache.http.impl.auth.NegotiateScheme.generateToken,25
org.apache.http.impl.auth.NegotiateScheme.getParameter,3
org.apache.http.impl.auth.NegotiateScheme.getRealm,1
org.apache.http.impl.auth.NegotiateScheme.getSchemeName,1
org.apache.http.impl.auth.NegotiateScheme.isConnectionBased,1
org.apache.http.impl.auth.NegotiateSchemeFactory.NegotiateSchemeFactory,1
org.apache.http.impl.auth.NegotiateSchemeFactory.NegotiateSchemeFactory,1
org.apache.http.impl.auth.NegotiateSchemeFactory.NegotiateSchemeFactory,3
org.apache.http.impl.auth.NegotiateSchemeFactory.getSpengoGenerator,1
org.apache.http.impl.auth.NegotiateSchemeFactory.isStripPort,1
org.apache.http.impl.auth.NegotiateSchemeFactory.newInstance,1
org.apache.http.impl.auth.RFC2617Scheme.RFC2617Scheme,1
org.apache.http.impl.auth.RFC2617Scheme.RFC2617Scheme,2
org.apache.http.impl.auth.RFC2617Scheme.getParameter,5
org.apache.http.impl.auth.RFC2617Scheme.getParameters,1
org.apache.http.impl.auth.RFC2617Scheme.getRealm,2
org.apache.http.impl.auth.RFC2617Scheme.parseChallenge,12
org.apache.http.impl.auth.SPNegoScheme.SPNegoScheme,1
org.apache.http.impl.auth.SPNegoScheme.SPNegoScheme,1
org.apache.http.impl.auth.SPNegoScheme.authenticate,1
org.apache.http.impl.auth.SPNegoScheme.generateToken,2
org.apache.http.impl.auth.SPNegoScheme.getParameter,3
org.apache.http.impl.auth.SPNegoScheme.getRealm,1
org.apache.http.impl.auth.SPNegoScheme.getSchemeName,1
org.apache.http.impl.auth.SPNegoScheme.isConnectionBased,1
org.apache.http.impl.auth.SPNegoSchemeFactory.SPNegoSchemeFactory,1
org.apache.http.impl.auth.SPNegoSchemeFactory.SPNegoSchemeFactory,2
org.apache.http.impl.auth.SPNegoSchemeFactory.isStripPort,1
org.apache.http.impl.auth.SPNegoSchemeFactory.newInstance,1
org.apache.http.impl.auth.UnsupportedDigestAlgorithmException.UnsupportedDigestAlgorithmException,1
org.apache.http.impl.auth.UnsupportedDigestAlgorithmException.UnsupportedDigestAlgorithmException,1
org.apache.http.impl.auth.UnsupportedDigestAlgorithmException.UnsupportedDigestAlgorithmException,1
org.apache.http.impl.client.AIMDBackoffManager.AIMDBackoffManager,1
org.apache.http.impl.client.AIMDBackoffManager.AIMDBackoffManager,4
org.apache.http.impl.client.AIMDBackoffManager.backOff,13
org.apache.http.impl.client.AIMDBackoffManager.getBackedOffPoolSize,4
org.apache.http.impl.client.AIMDBackoffManager.getLastUpdate,6
org.apache.http.impl.client.AIMDBackoffManager.probe,16
org.apache.http.impl.client.AIMDBackoffManager.setBackoffFactor,3
org.apache.http.impl.client.AIMDBackoffManager.setCooldownMillis,3
org.apache.http.impl.client.AIMDBackoffManager.setPerHostConnectionCap,3
org.apache.http.impl.client.AbstractAuthenticationHandler.AbstractAuthenticationHandler,1
org.apache.http.impl.client.AbstractAuthenticationHandler.getAuthPreferences,1
org.apache.http.impl.client.AbstractAuthenticationHandler.getAuthPreferences,2
org.apache.http.impl.client.AbstractAuthenticationHandler.parseChallenges,34
org.apache.http.impl.client.AbstractAuthenticationHandler.selectScheme,35
org.apache.http.impl.client.AbstractHttpClient.AbstractHttpClient,2
org.apache.http.impl.client.AbstractHttpClient.addRequestInterceptor,3
org.apache.http.impl.client.AbstractHttpClient.addRequestInterceptor,3
org.apache.http.impl.client.AbstractHttpClient.addResponseInterceptor,3
org.apache.http.impl.client.AbstractHttpClient.addResponseInterceptor,3
org.apache.http.impl.client.AbstractHttpClient.clearRequestInterceptors,3
org.apache.http.impl.client.AbstractHttpClient.clearResponseInterceptors,3
org.apache.http.impl.client.AbstractHttpClient.createAuthSchemeRegistry,7
org.apache.http.impl.client.AbstractHttpClient.createClientConnectionManager,27
org.apache.http.impl.client.AbstractHttpClient.createClientRequestDirector,1
org.apache.http.impl.client.AbstractHttpClient.createClientRequestDirector,1
org.apache.http.impl.client.AbstractHttpClient.createClientRequestDirector,1
org.apache.http.impl.client.AbstractHttpClient.createConnectionKeepAliveStrategy,1
org.apache.http.impl.client.AbstractHttpClient.createConnectionReuseStrategy,1
org.apache.http.impl.client.AbstractHttpClient.createCookieSpecRegistry,8
org.apache.http.impl.client.AbstractHttpClient.createCookieStore,1
org.apache.http.impl.client.AbstractHttpClient.createCredentialsProvider,1
org.apache.http.impl.client.AbstractHttpClient.createHttpContext,13
org.apache.http.impl.client.AbstractHttpClient.createHttpRequestRetryHandler,1
org.apache.http.impl.client.AbstractHttpClient.createHttpRoutePlanner,3
org.apache.http.impl.client.AbstractHttpClient.createProxyAuthenticationHandler,1
org.apache.http.impl.client.AbstractHttpClient.createProxyAuthenticationStrategy,1
org.apache.http.impl.client.AbstractHttpClient.createRedirectHandler,1
org.apache.http.impl.client.AbstractHttpClient.createRequestExecutor,1
org.apache.http.impl.client.AbstractHttpClient.createTargetAuthenticationHandler,1
org.apache.http.impl.client.AbstractHttpClient.createTargetAuthenticationStrategy,1
org.apache.http.impl.client.AbstractHttpClient.createUserTokenHandler,1
org.apache.http.impl.client.AbstractHttpClient.determineParams,3
org.apache.http.impl.client.AbstractHttpClient.determineTarget,10
org.apache.http.impl.client.AbstractHttpClient.execute,2
org.apache.http.impl.client.AbstractHttpClient.execute,66
org.apache.http.impl.client.AbstractHttpClient.execute,2
org.apache.http.impl.client.AbstractHttpClient.execute,24
org.apache.http.impl.client.AbstractHttpClient.execute,2
org.apache.http.impl.client.AbstractHttpClient.execute,5
org.apache.http.impl.client.AbstractHttpClient.execute,2
org.apache.http.impl.client.AbstractHttpClient.execute,4
org.apache.http.impl.client.AbstractHttpClient.getAuthSchemes,4
org.apache.http.impl.client.AbstractHttpClient.getBackoffManager,1
org.apache.http.impl.client.AbstractHttpClient.getConnectionBackoffStrategy,1
org.apache.http.impl.client.AbstractHttpClient.getConnectionKeepAliveStrategy,4
org.apache.http.impl.client.AbstractHttpClient.getConnectionManager,4
org.apache.http.impl.client.AbstractHttpClient.getConnectionReuseStrategy,4
org.apache.http.impl.client.AbstractHttpClient.getCookieSpecs,4
org.apache.http.impl.client.AbstractHttpClient.getCookieStore,4
org.apache.http.impl.client.AbstractHttpClient.getCredentialsProvider,4
org.apache.http.impl.client.AbstractHttpClient.getHttpProcessor,4
org.apache.http.impl.client.AbstractHttpClient.getHttpRequestRetryHandler,4
org.apache.http.impl.client.AbstractHttpClient.getParams,4
org.apache.http.impl.client.AbstractHttpClient.getProtocolProcessor,19
org.apache.http.impl.client.AbstractHttpClient.getProxyAuthenticationHandler,2
org.apache.http.impl.client.AbstractHttpClient.getProxyAuthenticationStrategy,4
org.apache.http.impl.client.AbstractHttpClient.getRedirectHandler,2
org.apache.http.impl.client.AbstractHttpClient.getRedirectStrategy,3
org.apache.http.impl.client.AbstractHttpClient.getRequestExecutor,4
org.apache.http.impl.client.AbstractHttpClient.getRequestInterceptor,3
org.apache.http.impl.client.AbstractHttpClient.getRequestInterceptorCount,3
org.apache.http.impl.client.AbstractHttpClient.getResponseInterceptor,3
org.apache.http.impl.client.AbstractHttpClient.getResponseInterceptorCount,3
org.apache.http.impl.client.AbstractHttpClient.getRoutePlanner,4
org.apache.http.impl.client.AbstractHttpClient.getTargetAuthenticationHandler,2
org.apache.http.impl.client.AbstractHttpClient.getTargetAuthenticationStrategy,4
org.apache.http.impl.client.AbstractHttpClient.getUserTokenHandler,4
org.apache.http.impl.client.AbstractHttpClient.removeRequestInterceptorByClass,3
org.apache.http.impl.client.AbstractHttpClient.removeResponseInterceptorByClass,3
org.apache.http.impl.client.AbstractHttpClient.setAuthSchemes,1
org.apache.http.impl.client.AbstractHttpClient.setBackoffManager,1
org.apache.http.impl.client.AbstractHttpClient.setConnectionBackoffStrategy,1
org.apache.http.impl.client.AbstractHttpClient.setCookieSpecs,1
org.apache.http.impl.client.AbstractHttpClient.setCookieStore,1
org.apache.http.impl.client.AbstractHttpClient.setCredentialsProvider,1
org.apache.http.impl.client.AbstractHttpClient.setHttpRequestRetryHandler,1
org.apache.http.impl.client.AbstractHttpClient.setKeepAliveStrategy,1
org.apache.http.impl.client.AbstractHttpClient.setParams,1
org.apache.http.impl.client.AbstractHttpClient.setProxyAuthenticationHandler,1
org.apache.http.impl.client.AbstractHttpClient.setProxyAuthenticationStrategy,1
org.apache.http.impl.client.AbstractHttpClient.setRedirectHandler,1
org.apache.http.impl.client.AbstractHttpClient.setRedirectStrategy,1
org.apache.http.impl.client.AbstractHttpClient.setReuseStrategy,1
org.apache.http.impl.client.AbstractHttpClient.setRoutePlanner,1
org.apache.http.impl.client.AbstractHttpClient.setTargetAuthenticationHandler,1
org.apache.http.impl.client.AbstractHttpClient.setTargetAuthenticationStrategy,1
org.apache.http.impl.client.AbstractHttpClient.setUserTokenHandler,1
org.apache.http.impl.client.AuthenticationStrategyAdaptor.AuthenticationStrategyAdaptor,2
org.apache.http.impl.client.AuthenticationStrategyAdaptor.authFailed,9
org.apache.http.impl.client.AuthenticationStrategyAdaptor.authSucceeded,12
org.apache.http.impl.client.AuthenticationStrategyAdaptor.getChallenges,2
org.apache.http.impl.client.AuthenticationStrategyAdaptor.getHandler,1
org.apache.http.impl.client.AuthenticationStrategyAdaptor.isAuthenticationRequested,2
org.apache.http.impl.client.AuthenticationStrategyAdaptor.isCachable,8
org.apache.http.impl.client.AuthenticationStrategyAdaptor.select,40
org.apache.http.impl.client.AuthenticationStrategyImpl.AuthenticationStrategyImpl,4
org.apache.http.impl.client.AuthenticationStrategyImpl.authFailed,14
org.apache.http.impl.client.AuthenticationStrategyImpl.authSucceeded,18
org.apache.http.impl.client.AuthenticationStrategyImpl.getChallenges,38
org.apache.http.impl.client.AuthenticationStrategyImpl.isAuthenticationRequested,6
org.apache.http.impl.client.AuthenticationStrategyImpl.isCachable,8
org.apache.http.impl.client.AuthenticationStrategyImpl.select,54
org.apache.http.impl.client.AutoRetryHttpClient.AutoRetryHttpClient,1
org.apache.http.impl.client.AutoRetryHttpClient.AutoRetryHttpClient,1
org.apache.http.impl.client.AutoRetryHttpClient.AutoRetryHttpClient,7
org.apache.http.impl.client.AutoRetryHttpClient.AutoRetryHttpClient,1
org.apache.http.impl.client.AutoRetryHttpClient.execute,3
org.apache.http.impl.client.AutoRetryHttpClient.execute,15
org.apache.http.impl.client.AutoRetryHttpClient.execute,2
org.apache.http.impl.client.AutoRetryHttpClient.execute,4
org.apache.http.impl.client.AutoRetryHttpClient.execute,3
org.apache.http.impl.client.AutoRetryHttpClient.execute,8
org.apache.http.impl.client.AutoRetryHttpClient.execute,2
org.apache.http.impl.client.AutoRetryHttpClient.execute,4
org.apache.http.impl.client.AutoRetryHttpClient.getConnectionManager,2
org.apache.http.impl.client.AutoRetryHttpClient.getParams,2
org.apache.http.impl.client.BasicAuthCache.BasicAuthCache,2
org.apache.http.impl.client.BasicAuthCache.clear,1
org.apache.http.impl.client.BasicAuthCache.get,4
org.apache.http.impl.client.BasicAuthCache.put,3
org.apache.http.impl.client.BasicAuthCache.remove,3
org.apache.http.impl.client.BasicAuthCache.toString,2
org.apache.http.impl.client.BasicCookieStore.BasicCookieStore,2
org.apache.http.impl.client.BasicCookieStore.addCookie,5
org.apache.http.impl.client.BasicCookieStore.addCookies,3
org.apache.http.impl.client.BasicCookieStore.clear,1
org.apache.http.impl.client.BasicCookieStore.clearExpired,12
org.apache.http.impl.client.BasicCookieStore.getCookies,1
org.apache.http.impl.client.BasicCookieStore.toString,2
org.apache.http.impl.client.BasicCredentialsProvider.BasicCredentialsProvider,2
org.apache.http.impl.client.BasicCredentialsProvider.clear,1
org.apache.http.impl.client.BasicCredentialsProvider.getCredentials,4
org.apache.http.impl.client.BasicCredentialsProvider.matchCredentials,16
org.apache.http.impl.client.BasicCredentialsProvider.setCredentials,3
org.apache.http.impl.client.BasicCredentialsProvider.toString,2
org.apache.http.impl.client.BasicResponseHandler.handleResponse,12
org.apache.http.impl.client.ClientParamsStack.ClientParamsStack,4
org.apache.http.impl.client.ClientParamsStack.ClientParamsStack,5
org.apache.http.impl.client.ClientParamsStack.ClientParamsStack,5
org.apache.http.impl.client.ClientParamsStack.copy,1
org.apache.http.impl.client.ClientParamsStack.getApplicationParams,1
org.apache.http.impl.client.ClientParamsStack.getClientParams,1
org.apache.http.impl.client.ClientParamsStack.getOverrideParams,1
org.apache.http.impl.client.ClientParamsStack.getParameter,16
org.apache.http.impl.client.ClientParamsStack.getRequestParams,1
org.apache.http.impl.client.ClientParamsStack.removeParameter,1
org.apache.http.impl.client.ClientParamsStack.setParameter,1
org.apache.http.impl.client.ContentEncodingHttpClient.ContentEncodingHttpClient,1
org.apache.http.impl.client.ContentEncodingHttpClient.ContentEncodingHttpClient,1
org.apache.http.impl.client.ContentEncodingHttpClient.ContentEncodingHttpClient,1
org.apache.http.impl.client.ContentEncodingHttpClient.createHttpProcessor,4
org.apache.http.impl.client.DefaultBackoffStrategy.shouldBackoff,1
org.apache.http.impl.client.DefaultBackoffStrategy.shouldBackoff,3
org.apache.http.impl.client.DefaultConnectionKeepAliveStrategy.getKeepAliveDuration,19
org.apache.http.impl.client.DefaultHttpClient.DefaultHttpClient,1
org.apache.http.impl.client.DefaultHttpClient.DefaultHttpClient,1
org.apache.http.impl.client.DefaultHttpClient.DefaultHttpClient,1
org.apache.http.impl.client.DefaultHttpClient.DefaultHttpClient,1
org.apache.http.impl.client.DefaultHttpClient.createHttpParams,3
org.apache.http.impl.client.DefaultHttpClient.createHttpProcessor,13
org.apache.http.impl.client.DefaultHttpClient.setDefaultHttpParams,10
org.apache.http.impl.client.DefaultHttpRequestRetryHandler.DefaultHttpRequestRetryHandler,1
org.apache.http.impl.client.DefaultHttpRequestRetryHandler.DefaultHttpRequestRetryHandler,3
org.apache.http.impl.client.DefaultHttpRequestRetryHandler.getRetryCount,1
org.apache.http.impl.client.DefaultHttpRequestRetryHandler.handleAsIdempotent,1
org.apache.http.impl.client.DefaultHttpRequestRetryHandler.isRequestSentRetryEnabled,1
org.apache.http.impl.client.DefaultHttpRequestRetryHandler.requestIsAborted,6
org.apache.http.impl.client.DefaultHttpRequestRetryHandler.retryRequest,29
org.apache.http.impl.client.DefaultProxyAuthenticationHandler.DefaultProxyAuthenticationHandler,1
org.apache.http.impl.client.DefaultProxyAuthenticationHandler.getAuthPreferences,6
org.apache.http.impl.client.DefaultProxyAuthenticationHandler.getChallenges,6
org.apache.http.impl.client.DefaultProxyAuthenticationHandler.isAuthenticationRequested,6
org.apache.http.impl.client.DefaultRedirectHandler.DefaultRedirectHandler,1
org.apache.http.impl.client.DefaultRedirectHandler.getLocationURI,67
org.apache.http.impl.client.DefaultRedirectHandler.isRedirectRequested,20
org.apache.http.impl.client.DefaultRedirectStrategy.DefaultRedirectStrategy,1
org.apache.http.impl.client.DefaultRedirectStrategy.createLocationURI,4
org.apache.http.impl.client.DefaultRedirectStrategy.getLocationURI,62
org.apache.http.impl.client.DefaultRedirectStrategy.getRedirect,9
org.apache.http.impl.client.DefaultRedirectStrategy.isRedirectable,5
org.apache.http.impl.client.DefaultRedirectStrategy.isRedirected,23
org.apache.http.impl.client.DefaultRedirectStrategyAdaptor.DefaultRedirectStrategyAdaptor,2
org.apache.http.impl.client.DefaultRedirectStrategyAdaptor.getHandler,1
org.apache.http.impl.client.DefaultRedirectStrategyAdaptor.getRedirect,9
org.apache.http.impl.client.DefaultRedirectStrategyAdaptor.isRedirected,2
org.apache.http.impl.client.DefaultRequestDirector.DefaultRequestDirector,2
org.apache.http.impl.client.DefaultRequestDirector.DefaultRequestDirector,59
org.apache.http.impl.client.DefaultRequestDirector.DefaultRequestDirector,2
org.apache.http.impl.client.DefaultRequestDirector.abortConnection,14
org.apache.http.impl.client.DefaultRequestDirector.createConnectRequest,25
org.apache.http.impl.client.DefaultRequestDirector.createTunnelToProxy,1
org.apache.http.impl.client.DefaultRequestDirector.createTunnelToTarget,55
org.apache.http.impl.client.DefaultRequestDirector.determineRoute,8
org.apache.http.impl.client.DefaultRequestDirector.establishRoute,35
org.apache.http.impl.client.DefaultRequestDirector.execute,164
org.apache.http.impl.client.DefaultRequestDirector.handleResponse,80
org.apache.http.impl.client.DefaultRequestDirector.releaseConnection,5
org.apache.http.impl.client.DefaultRequestDirector.rewriteRequestURI,22
org.apache.http.impl.client.DefaultRequestDirector.tryConnect,34
org.apache.http.impl.client.DefaultRequestDirector.tryExecute,52
org.apache.http.impl.client.DefaultRequestDirector.wrapRequest,3
org.apache.http.impl.client.DefaultServiceUnavailableRetryStrategy.DefaultServiceUnavailableRetryStrategy,1
org.apache.http.impl.client.DefaultServiceUnavailableRetryStrategy.DefaultServiceUnavailableRetryStrategy,7
org.apache.http.impl.client.DefaultServiceUnavailableRetryStrategy.getRetryInterval,1
org.apache.http.impl.client.DefaultServiceUnavailableRetryStrategy.retryRequest,3
org.apache.http.impl.client.DefaultTargetAuthenticationHandler.DefaultTargetAuthenticationHandler,1
org.apache.http.impl.client.DefaultTargetAuthenticationHandler.getAuthPreferences,6
org.apache.http.impl.client.DefaultTargetAuthenticationHandler.getChallenges,6
org.apache.http.impl.client.DefaultTargetAuthenticationHandler.isAuthenticationRequested,6
org.apache.http.impl.client.DefaultUserTokenHandler.getAuthPrincipal,11
org.apache.http.impl.client.DefaultUserTokenHandler.getUserToken,22
org.apache.http.impl.client.EntityEnclosingRequestWrapper.EntityEnclosingRequestWrapper,3
org.apache.http.impl.client.EntityEnclosingRequestWrapper.expectContinue,5
org.apache.http.impl.client.EntityEnclosingRequestWrapper.getEntity,1
org.apache.http.impl.client.EntityEnclosingRequestWrapper.isRepeatable,2
org.apache.http.impl.client.EntityEnclosingRequestWrapper.setEntity,2
org.apache.http.impl.client.EntityEnclosingRequestWrapper.EntityWrapper.EntityWrapper,1
org.apache.http.impl.client.EntityEnclosingRequestWrapper.EntityWrapper.consumeContent,1
org.apache.http.impl.client.EntityEnclosingRequestWrapper.EntityWrapper.getContent,2
org.apache.http.impl.client.EntityEnclosingRequestWrapper.EntityWrapper.writeTo,1
org.apache.http.impl.client.HttpAuthenticator.HttpAuthenticator,1
org.apache.http.impl.client.HttpAuthenticator.HttpAuthenticator,4
org.apache.http.impl.client.HttpAuthenticator.authenticate,67
org.apache.http.impl.client.HttpAuthenticator.isAuthenticationRequested,15
org.apache.http.impl.client.LaxRedirectStrategy.isRedirectable,5
org.apache.http.impl.client.NullBackoffStrategy.shouldBackoff,1
org.apache.http.impl.client.NullBackoffStrategy.shouldBackoff,1
org.apache.http.impl.client.ProxyAuthenticationStrategy.ProxyAuthenticationStrategy,1
org.apache.http.impl.client.ProxyClient.ProxyClient,1
org.apache.http.impl.client.ProxyClient.ProxyClient,16
org.apache.http.impl.client.ProxyClient.getAuthSchemeRegistry,1
org.apache.http.impl.client.ProxyClient.getParams,1
org.apache.http.impl.client.ProxyClient.tunnel,75
org.apache.http.impl.client.ProxyClient.ProxyConnection.ProxyConnection,2
org.apache.http.impl.client.ProxyClient.ProxyConnection.getRoute,1
org.apache.http.impl.client.ProxyClient.ProxyConnection.getSSLSession,1
org.apache.http.impl.client.ProxyClient.ProxyConnection.getSocket,1
org.apache.http.impl.client.ProxyClient.ProxyConnection.isSecure,1
org.apache.http.impl.client.RedirectLocations.RedirectLocations,3
org.apache.http.impl.client.RedirectLocations.add,2
org.apache.http.impl.client.RedirectLocations.contains,2
org.apache.http.impl.client.RedirectLocations.getAll,1
org.apache.http.impl.client.RedirectLocations.remove,13
org.apache.http.impl.client.RequestWrapper.RequestWrapper,27
org.apache.http.impl.client.RequestWrapper.abort,1
org.apache.http.impl.client.RequestWrapper.getExecCount,1
org.apache.http.impl.client.RequestWrapper.getMethod,1
org.apache.http.impl.client.RequestWrapper.getOriginal,1
org.apache.http.impl.client.RequestWrapper.getProtocolVersion,5
org.apache.http.impl.client.RequestWrapper.getRequestLine,12
org.apache.http.impl.client.RequestWrapper.getURI,1
org.apache.http.impl.client.RequestWrapper.incrementExecCount,1
org.apache.http.impl.client.RequestWrapper.isAborted,1
org.apache.http.impl.client.RequestWrapper.isRepeatable,1
org.apache.http.impl.client.RequestWrapper.resetHeaders,3
org.apache.http.impl.client.RequestWrapper.setMethod,3
org.apache.http.impl.client.RequestWrapper.setProtocolVersion,1
org.apache.http.impl.client.RequestWrapper.setURI,1
org.apache.http.impl.client.RoutedRequest.RoutedRequest,3
org.apache.http.impl.client.RoutedRequest.getRequest,1
org.apache.http.impl.client.RoutedRequest.getRoute,1
org.apache.http.impl.client.StandardHttpRequestRetryHandler.StandardHttpRequestRetryHandler,1
org.apache.http.impl.client.StandardHttpRequestRetryHandler.StandardHttpRequestRetryHandler,8
org.apache.http.impl.client.StandardHttpRequestRetryHandler.handleAsIdempotent,8
org.apache.http.impl.client.SystemClock.getCurrentTime,2
org.apache.http.impl.client.SystemDefaultHttpClient.SystemDefaultHttpClient,1
org.apache.http.impl.client.SystemDefaultHttpClient.SystemDefaultHttpClient,1
org.apache.http.impl.client.SystemDefaultHttpClient.createClientConnectionManager,13
org.apache.http.impl.client.SystemDefaultHttpClient.createConnectionReuseStrategy,6
org.apache.http.impl.client.SystemDefaultHttpClient.createHttpRoutePlanner,4
org.apache.http.impl.client.TargetAuthenticationStrategy.TargetAuthenticationStrategy,1
org.apache.http.impl.client.TunnelRefusedException.TunnelRefusedException,2
org.apache.http.impl.client.TunnelRefusedException.getResponse,1
org.apache.http.impl.conn.AbstractClientConnAdapter.AbstractClientConnAdapter,6
org.apache.http.impl.conn.AbstractClientConnAdapter.abortConnection,8
org.apache.http.impl.conn.AbstractClientConnAdapter.assertNotAborted,3
org.apache.http.impl.conn.AbstractClientConnAdapter.assertValid,3
org.apache.http.impl.conn.AbstractClientConnAdapter.detach,2
org.apache.http.impl.conn.AbstractClientConnAdapter.flush,4
org.apache.http.impl.conn.AbstractClientConnAdapter.getAttribute,7
org.apache.http.impl.conn.AbstractClientConnAdapter.getLocalAddress,5
org.apache.http.impl.conn.AbstractClientConnAdapter.getLocalPort,5
org.apache.http.impl.conn.AbstractClientConnAdapter.getManager,1
org.apache.http.impl.conn.AbstractClientConnAdapter.getMetrics,5
org.apache.http.impl.conn.AbstractClientConnAdapter.getRemoteAddress,5
org.apache.http.impl.conn.AbstractClientConnAdapter.getRemotePort,5
org.apache.http.impl.conn.AbstractClientConnAdapter.getSSLSession,13
org.apache.http.impl.conn.AbstractClientConnAdapter.getSocketTimeout,5
org.apache.http.impl.conn.AbstractClientConnAdapter.getWrappedConnection,1
org.apache.http.impl.conn.AbstractClientConnAdapter.isMarkedReusable,1
org.apache.http.impl.conn.AbstractClientConnAdapter.isOpen,6
org.apache.http.impl.conn.AbstractClientConnAdapter.isReleased,1
org.apache.http.impl.conn.AbstractClientConnAdapter.isResponseAvailable,5
org.apache.http.impl.conn.AbstractClientConnAdapter.isSecure,5
org.apache.http.impl.conn.AbstractClientConnAdapter.isStale,9
org.apache.http.impl.conn.AbstractClientConnAdapter.markReusable,1
org.apache.http.impl.conn.AbstractClientConnAdapter.receiveResponseEntity,5
org.apache.http.impl.conn.AbstractClientConnAdapter.receiveResponseHeader,6
org.apache.http.impl.conn.AbstractClientConnAdapter.releaseConnection,4
org.apache.http.impl.conn.AbstractClientConnAdapter.removeAttribute,7
org.apache.http.impl.conn.AbstractClientConnAdapter.sendRequestEntity,5
org.apache.http.impl.conn.AbstractClientConnAdapter.sendRequestHeader,5
org.apache.http.impl.conn.AbstractClientConnAdapter.setAttribute,5
org.apache.http.impl.conn.AbstractClientConnAdapter.setIdleDuration,4
org.apache.http.impl.conn.AbstractClientConnAdapter.setSocketTimeout,4
org.apache.http.impl.conn.AbstractClientConnAdapter.unmarkReusable,1
org.apache.http.impl.conn.AbstractPoolEntry.AbstractPoolEntry,8
org.apache.http.impl.conn.AbstractPoolEntry.getState,1
org.apache.http.impl.conn.AbstractPoolEntry.layerProtocol,16
org.apache.http.impl.conn.AbstractPoolEntry.open,21
org.apache.http.impl.conn.AbstractPoolEntry.setState,1
org.apache.http.impl.conn.AbstractPoolEntry.shutdownEntry,2
org.apache.http.impl.conn.AbstractPoolEntry.tunnelProxy,9
org.apache.http.impl.conn.AbstractPoolEntry.tunnelTarget,11
org.apache.http.impl.conn.AbstractPooledConnAdapter.AbstractPooledConnAdapter,2
org.apache.http.impl.conn.AbstractPooledConnAdapter.assertAttached,2
org.apache.http.impl.conn.AbstractPooledConnAdapter.assertValid,3
org.apache.http.impl.conn.AbstractPooledConnAdapter.close,8
org.apache.http.impl.conn.AbstractPooledConnAdapter.detach,1
org.apache.http.impl.conn.AbstractPooledConnAdapter.getPoolEntry,1
org.apache.http.impl.conn.AbstractPooledConnAdapter.getRoute,5
org.apache.http.impl.conn.AbstractPooledConnAdapter.getState,5
org.apache.http.impl.conn.AbstractPooledConnAdapter.layerProtocol,4
org.apache.http.impl.conn.AbstractPooledConnAdapter.open,4
org.apache.http.impl.conn.AbstractPooledConnAdapter.setState,4
org.apache.http.impl.conn.AbstractPooledConnAdapter.shutdown,8
org.apache.http.impl.conn.AbstractPooledConnAdapter.tunnelProxy,4
org.apache.http.impl.conn.AbstractPooledConnAdapter.tunnelTarget,4
org.apache.http.impl.conn.BasicClientConnectionManager.BasicClientConnectionManager,2
org.apache.http.impl.conn.BasicClientConnectionManager.BasicClientConnectionManager,5
org.apache.http.impl.conn.BasicClientConnectionManager.assertNotShutdown,2
org.apache.http.impl.conn.BasicClientConnectionManager.closeExpiredConnections,8
org.apache.http.impl.conn.BasicClientConnectionManager.closeIdleConnections,14
org.apache.http.impl.conn.BasicClientConnectionManager.createConnectionOperator,1
org.apache.http.impl.conn.BasicClientConnectionManager.finalize,3
org.apache.http.impl.conn.BasicClientConnectionManager.getConnection,30
org.apache.http.impl.conn.BasicClientConnectionManager.getSchemeRegistry,1
org.apache.http.impl.conn.BasicClientConnectionManager.releaseConnection,38
org.apache.http.impl.conn.BasicClientConnectionManager.requestConnection,3
org.apache.http.impl.conn.BasicClientConnectionManager.shutdown,7
org.apache.http.impl.conn.BasicClientConnectionManager..abortRequest,0
org.apache.http.impl.conn.BasicClientConnectionManager..getConnection,2
org.apache.http.impl.conn.ConnectionShutdownException.ConnectionShutdownException,1
org.apache.http.impl.conn.DefaultClientConnection.DefaultClientConnection,2
org.apache.http.impl.conn.DefaultClientConnection.close,6
org.apache.http.impl.conn.DefaultClientConnection.createResponseParser,1
org.apache.http.impl.conn.DefaultClientConnection.createSessionInputBuffer,8
org.apache.http.impl.conn.DefaultClientConnection.createSessionOutputBuffer,8
org.apache.http.impl.conn.DefaultClientConnection.getAttribute,2
org.apache.http.impl.conn.DefaultClientConnection.getSocket,1
org.apache.http.impl.conn.DefaultClientConnection.getTargetHost,1
org.apache.http.impl.conn.DefaultClientConnection.isSecure,1
org.apache.http.impl.conn.DefaultClientConnection.openCompleted,5
org.apache.http.impl.conn.DefaultClientConnection.opening,6
org.apache.http.impl.conn.DefaultClientConnection.receiveResponseHeader,16
org.apache.http.impl.conn.DefaultClientConnection.removeAttribute,2
org.apache.http.impl.conn.DefaultClientConnection.sendRequestHeader,14
org.apache.http.impl.conn.DefaultClientConnection.setAttribute,1
org.apache.http.impl.conn.DefaultClientConnection.shutdown,10
org.apache.http.impl.conn.DefaultClientConnection.update,10
org.apache.http.impl.conn.DefaultClientConnectionOperator.DefaultClientConnectionOperator,4
org.apache.http.impl.conn.DefaultClientConnectionOperator.DefaultClientConnectionOperator,6
org.apache.http.impl.conn.DefaultClientConnectionOperator.createConnection,1
org.apache.http.impl.conn.DefaultClientConnectionOperator.openConnection,53
org.apache.http.impl.conn.DefaultClientConnectionOperator.prepareSocket,8
org.apache.http.impl.conn.DefaultClientConnectionOperator.resolveHostname,2
org.apache.http.impl.conn.DefaultClientConnectionOperator.updateSecureConnection,30
org.apache.http.impl.conn.DefaultHttpRoutePlanner.DefaultHttpRoutePlanner,3
org.apache.http.impl.conn.DefaultHttpRoutePlanner.determineRoute,29
org.apache.http.impl.conn.DefaultResponseParser.DefaultResponseParser,7
org.apache.http.impl.conn.DefaultResponseParser.getMaxGarbageLines,2
org.apache.http.impl.conn.DefaultResponseParser.parseHead,24
org.apache.http.impl.conn.HttpConnPool.HttpConnPool,4
org.apache.http.impl.conn.HttpConnPool.createEntry,4
org.apache.http.impl.conn.HttpConnPool.InternalConnFactory.create,1
org.apache.http.impl.conn.HttpPoolEntry.HttpPoolEntry,3
org.apache.http.impl.conn.HttpPoolEntry.close,6
org.apache.http.impl.conn.HttpPoolEntry.getEffectiveRoute,2
org.apache.http.impl.conn.HttpPoolEntry.getPlannedRoute,2
org.apache.http.impl.conn.HttpPoolEntry.getTracker,1
org.apache.http.impl.conn.HttpPoolEntry.isClosed,4
org.apache.http.impl.conn.HttpPoolEntry.isExpired,6
org.apache.http.impl.conn.IdleConnectionHandler.IdleConnectionHandler,2
org.apache.http.impl.conn.IdleConnectionHandler.add,6
org.apache.http.impl.conn.IdleConnectionHandler.closeExpiredConnections,19
org.apache.http.impl.conn.IdleConnectionHandler.closeIdleConnections,20
org.apache.http.impl.conn.IdleConnectionHandler.remove,7
org.apache.http.impl.conn.IdleConnectionHandler.removeAll,1
org.apache.http.impl.conn.IdleConnectionHandler.TimeValues.TimeValues,5
org.apache.http.impl.conn.InMemoryDnsResolver.InMemoryDnsResolver,1
org.apache.http.impl.conn.InMemoryDnsResolver.add,5
org.apache.http.impl.conn.InMemoryDnsResolver.resolve,9
org.apache.http.impl.conn.LoggingSessionInputBuffer.LoggingSessionInputBuffer,1
org.apache.http.impl.conn.LoggingSessionInputBuffer.LoggingSessionInputBuffer,5
org.apache.http.impl.conn.LoggingSessionInputBuffer.getMetrics,2
org.apache.http.impl.conn.LoggingSessionInputBuffer.isDataAvailable,2
org.apache.http.impl.conn.LoggingSessionInputBuffer.isEof,4
org.apache.http.impl.conn.LoggingSessionInputBuffer.read,6
org.apache.http.impl.conn.LoggingSessionInputBuffer.read,6
org.apache.http.impl.conn.LoggingSessionInputBuffer.read,6
org.apache.http.impl.conn.LoggingSessionInputBuffer.readLine,8
org.apache.http.impl.conn.LoggingSessionInputBuffer.readLine,12
org.apache.http.impl.conn.LoggingSessionOutputBuffer.LoggingSessionOutputBuffer,1
org.apache.http.impl.conn.LoggingSessionOutputBuffer.LoggingSessionOutputBuffer,4
org.apache.http.impl.conn.LoggingSessionOutputBuffer.flush,1
org.apache.http.impl.conn.LoggingSessionOutputBuffer.getMetrics,2
org.apache.http.impl.conn.LoggingSessionOutputBuffer.write,4
org.apache.http.impl.conn.LoggingSessionOutputBuffer.write,4
org.apache.http.impl.conn.LoggingSessionOutputBuffer.write,4
org.apache.http.impl.conn.LoggingSessionOutputBuffer.writeLine,9
org.apache.http.impl.conn.LoggingSessionOutputBuffer.writeLine,6
org.apache.http.impl.conn.ManagedClientConnectionImpl.ManagedClientConnectionImpl,12
org.apache.http.impl.conn.ManagedClientConnectionImpl.abortConnection,10
org.apache.http.impl.conn.ManagedClientConnectionImpl.close,7
org.apache.http.impl.conn.ManagedClientConnectionImpl.detach,3
org.apache.http.impl.conn.ManagedClientConnectionImpl.ensureConnection,5
org.apache.http.impl.conn.ManagedClientConnectionImpl.ensurePoolEntry,4
org.apache.http.impl.conn.ManagedClientConnectionImpl.flush,3
org.apache.http.impl.conn.ManagedClientConnectionImpl.getAttribute,6
org.apache.http.impl.conn.ManagedClientConnectionImpl.getConnection,5
org.apache.http.impl.conn.ManagedClientConnectionImpl.getLocalAddress,4
org.apache.http.impl.conn.ManagedClientConnectionImpl.getLocalPort,4
org.apache.http.impl.conn.ManagedClientConnectionImpl.getManager,1
org.apache.http.impl.conn.ManagedClientConnectionImpl.getMetrics,4
org.apache.http.impl.conn.ManagedClientConnectionImpl.getPoolEntry,1
org.apache.http.impl.conn.ManagedClientConnectionImpl.getRemoteAddress,4
org.apache.http.impl.conn.ManagedClientConnectionImpl.getRemotePort,4
org.apache.http.impl.conn.ManagedClientConnectionImpl.getRoute,4
org.apache.http.impl.conn.ManagedClientConnectionImpl.getSSLSession,9
org.apache.http.impl.conn.ManagedClientConnectionImpl.getSocketTimeout,4
org.apache.http.impl.conn.ManagedClientConnectionImpl.getState,4
org.apache.http.impl.conn.ManagedClientConnectionImpl.isMarkedReusable,1
org.apache.http.impl.conn.ManagedClientConnectionImpl.isOpen,6
org.apache.http.impl.conn.ManagedClientConnectionImpl.isResponseAvailable,4
org.apache.http.impl.conn.ManagedClientConnectionImpl.isSecure,4
org.apache.http.impl.conn.ManagedClientConnectionImpl.isStale,6
org.apache.http.impl.conn.ManagedClientConnectionImpl.layerProtocol,28
org.apache.http.impl.conn.ManagedClientConnectionImpl.markReusable,1
org.apache.http.impl.conn.ManagedClientConnectionImpl.open,28
org.apache.http.impl.conn.ManagedClientConnectionImpl.receiveResponseEntity,3
org.apache.http.impl.conn.ManagedClientConnectionImpl.receiveResponseHeader,4
org.apache.http.impl.conn.ManagedClientConnectionImpl.releaseConnection,4
org.apache.http.impl.conn.ManagedClientConnectionImpl.removeAttribute,6
org.apache.http.impl.conn.ManagedClientConnectionImpl.sendRequestEntity,3
org.apache.http.impl.conn.ManagedClientConnectionImpl.sendRequestHeader,3
org.apache.http.impl.conn.ManagedClientConnectionImpl.setAttribute,4
org.apache.http.impl.conn.ManagedClientConnectionImpl.setIdleDuration,4
org.apache.http.impl.conn.ManagedClientConnectionImpl.setSocketTimeout,3
org.apache.http.impl.conn.ManagedClientConnectionImpl.setState,3
org.apache.http.impl.conn.ManagedClientConnectionImpl.shutdown,7
org.apache.http.impl.conn.ManagedClientConnectionImpl.tunnelProxy,20
org.apache.http.impl.conn.ManagedClientConnectionImpl.tunnelTarget,24
org.apache.http.impl.conn.ManagedClientConnectionImpl.unmarkReusable,1
org.apache.http.impl.conn.PoolingClientConnectionManager.PoolingClientConnectionManager,2
org.apache.http.impl.conn.PoolingClientConnectionManager.PoolingClientConnectionManager,1
org.apache.http.impl.conn.PoolingClientConnectionManager.PoolingClientConnectionManager,1
org.apache.http.impl.conn.PoolingClientConnectionManager.PoolingClientConnectionManager,10
org.apache.http.impl.conn.PoolingClientConnectionManager.PoolingClientConnectionManager,1
org.apache.http.impl.conn.PoolingClientConnectionManager.closeExpiredConnections,2
org.apache.http.impl.conn.PoolingClientConnectionManager.closeIdleConnections,4
org.apache.http.impl.conn.PoolingClientConnectionManager.createConnectionOperator,1
org.apache.http.impl.conn.PoolingClientConnectionManager.finalize,3
org.apache.http.impl.conn.PoolingClientConnectionManager.format,10
org.apache.http.impl.conn.PoolingClientConnectionManager.format,17
org.apache.http.impl.conn.PoolingClientConnectionManager.formatStats,27
org.apache.http.impl.conn.PoolingClientConnectionManager.getDefaultMaxPerRoute,2
org.apache.http.impl.conn.PoolingClientConnectionManager.getMaxPerRoute,2
org.apache.http.impl.conn.PoolingClientConnectionManager.getMaxTotal,2
org.apache.http.impl.conn.PoolingClientConnectionManager.getSchemeRegistry,1
org.apache.http.impl.conn.PoolingClientConnectionManager.getStats,2
org.apache.http.impl.conn.PoolingClientConnectionManager.getTotalStats,2
org.apache.http.impl.conn.PoolingClientConnectionManager.leaseConnection,26
org.apache.http.impl.conn.PoolingClientConnectionManager.releaseConnection,38
org.apache.http.impl.conn.PoolingClientConnectionManager.requestConnection,13
org.apache.http.impl.conn.PoolingClientConnectionManager.setDefaultMaxPerRoute,1
org.apache.http.impl.conn.PoolingClientConnectionManager.setMaxPerRoute,1
org.apache.http.impl.conn.PoolingClientConnectionManager.setMaxTotal,1
org.apache.http.impl.conn.PoolingClientConnectionManager.shutdown,6
org.apache.http.impl.conn.PoolingClientConnectionManager..abortRequest,1
org.apache.http.impl.conn.PoolingClientConnectionManager..getConnection,2
org.apache.http.impl.conn.ProxySelectorRoutePlanner.ProxySelectorRoutePlanner,4
org.apache.http.impl.conn.ProxySelectorRoutePlanner.chooseProxy,19
org.apache.http.impl.conn.ProxySelectorRoutePlanner.determineProxy,29
org.apache.http.impl.conn.ProxySelectorRoutePlanner.determineRoute,23
org.apache.http.impl.conn.ProxySelectorRoutePlanner.getHost,5
org.apache.http.impl.conn.ProxySelectorRoutePlanner.getProxySelector,1
org.apache.http.impl.conn.ProxySelectorRoutePlanner.setProxySelector,1
org.apache.http.impl.conn.SchemeRegistryFactory.createDefault,6
org.apache.http.impl.conn.SchemeRegistryFactory.createSystemDefault,6
org.apache.http.impl.conn.SingleClientConnManager.SingleClientConnManager,2
org.apache.http.impl.conn.SingleClientConnManager.SingleClientConnManager,1
org.apache.http.impl.conn.SingleClientConnManager.SingleClientConnManager,10
org.apache.http.impl.conn.SingleClientConnManager.assertStillUp,2
org.apache.http.impl.conn.SingleClientConnManager.closeExpiredConnections,4
org.apache.http.impl.conn.SingleClientConnManager.closeIdleConnections,13
org.apache.http.impl.conn.SingleClientConnManager.createConnectionOperator,1
org.apache.http.impl.conn.SingleClientConnManager.finalize,3
org.apache.http.impl.conn.SingleClientConnManager.getConnection,28
org.apache.http.impl.conn.SingleClientConnManager.getSchemeRegistry,1
org.apache.http.impl.conn.SingleClientConnManager.releaseConnection,34
org.apache.http.impl.conn.SingleClientConnManager.requestConnection,3
org.apache.http.impl.conn.SingleClientConnManager.revokeConnection,8
org.apache.http.impl.conn.SingleClientConnManager.shutdown,9
org.apache.http.impl.conn.SingleClientConnManager..abortRequest,0
org.apache.http.impl.conn.SingleClientConnManager..getConnection,2
org.apache.http.impl.conn.SingleClientConnManager.ConnAdapter.ConnAdapter,3
org.apache.http.impl.conn.SingleClientConnManager.PoolEntry.PoolEntry,1
org.apache.http.impl.conn.SingleClientConnManager.PoolEntry.close,4
org.apache.http.impl.conn.SingleClientConnManager.PoolEntry.shutdown,4
org.apache.http.impl.conn.SystemDefaultDnsResolver.resolve,2
org.apache.http.impl.conn.Wire.Wire,1
org.apache.http.impl.conn.Wire.enabled,2
org.apache.http.impl.conn.Wire.input,3
org.apache.http.impl.conn.Wire.input,4
org.apache.http.impl.conn.Wire.input,3
org.apache.http.impl.conn.Wire.input,3
org.apache.http.impl.conn.Wire.input,1
org.apache.http.impl.conn.Wire.output,3
org.apache.http.impl.conn.Wire.output,4
org.apache.http.impl.conn.Wire.output,3
org.apache.http.impl.conn.Wire.output,3
org.apache.http.impl.conn.Wire.output,1
org.apache.http.impl.conn.Wire.wire,27
org.apache.http.impl.conn.tsccm.AbstractConnPool.AbstractConnPool,7
org.apache.http.impl.conn.tsccm.AbstractConnPool.closeConnection,5
org.apache.http.impl.conn.tsccm.AbstractConnPool.closeExpiredConnections,5
org.apache.http.impl.conn.tsccm.AbstractConnPool.closeIdleConnections,8
org.apache.http.impl.conn.tsccm.AbstractConnPool.enableConnectionGC,0
org.apache.http.impl.conn.tsccm.AbstractConnPool.getEntry,3
org.apache.http.impl.conn.tsccm.AbstractConnPool.handleReference,0
org.apache.http.impl.conn.tsccm.AbstractConnPool.shutdown,17
org.apache.http.impl.conn.tsccm.BasicPoolEntry.BasicPoolEntry,1
org.apache.http.impl.conn.tsccm.BasicPoolEntry.BasicPoolEntry,7
org.apache.http.impl.conn.tsccm.BasicPoolEntry.BasicPoolEntry,10
org.apache.http.impl.conn.tsccm.BasicPoolEntry.getConnection,1
org.apache.http.impl.conn.tsccm.BasicPoolEntry.getCreated,1
org.apache.http.impl.conn.tsccm.BasicPoolEntry.getExpiry,1
org.apache.http.impl.conn.tsccm.BasicPoolEntry.getPlannedRoute,1
org.apache.http.impl.conn.tsccm.BasicPoolEntry.getUpdated,1
org.apache.http.impl.conn.tsccm.BasicPoolEntry.getValidUntil,1
org.apache.http.impl.conn.tsccm.BasicPoolEntry.getWeakRef,1
org.apache.http.impl.conn.tsccm.BasicPoolEntry.isExpired,1
org.apache.http.impl.conn.tsccm.BasicPoolEntry.shutdownEntry,0
org.apache.http.impl.conn.tsccm.BasicPoolEntry.updateExpiry,9
org.apache.http.impl.conn.tsccm.BasicPoolEntryRef.BasicPoolEntryRef,5
org.apache.http.impl.conn.tsccm.BasicPoolEntryRef.getRoute,1
org.apache.http.impl.conn.tsccm.BasicPooledConnAdapter.BasicPooledConnAdapter,2
org.apache.http.impl.conn.tsccm.BasicPooledConnAdapter.detach,0
org.apache.http.impl.conn.tsccm.BasicPooledConnAdapter.getManager,1
org.apache.http.impl.conn.tsccm.BasicPooledConnAdapter.getPoolEntry,1
org.apache.http.impl.conn.tsccm.ConnPoolByRoute.ConnPoolByRoute,3
org.apache.http.impl.conn.tsccm.ConnPoolByRoute.ConnPoolByRoute,1
org.apache.http.impl.conn.tsccm.ConnPoolByRoute.ConnPoolByRoute,18
org.apache.http.impl.conn.tsccm.ConnPoolByRoute.closeConnection,7
org.apache.http.impl.conn.tsccm.ConnPoolByRoute.closeExpiredConnections,21
org.apache.http.impl.conn.tsccm.ConnPoolByRoute.closeIdleConnections,28
org.apache.http.impl.conn.tsccm.ConnPoolByRoute.createEntry,14
org.apache.http.impl.conn.tsccm.ConnPoolByRoute.createFreeConnQueue,1
org.apache.http.impl.conn.tsccm.ConnPoolByRoute.createRouteToPoolMap,1
org.apache.http.impl.conn.tsccm.ConnPoolByRoute.createWaitingThreadQueue,1
org.apache.http.impl.conn.tsccm.ConnPoolByRoute.deleteClosedConnections,15
org.apache.http.impl.conn.tsccm.ConnPoolByRoute.deleteEntry,18
org.apache.http.impl.conn.tsccm.ConnPoolByRoute.deleteLeastUsedEntry,11
org.apache.http.impl.conn.tsccm.ConnPoolByRoute.freeEntry,33
org.apache.http.impl.conn.tsccm.ConnPoolByRoute.getConnectionsInPool,5
org.apache.http.impl.conn.tsccm.ConnPoolByRoute.getConnectionsInPool,8
org.apache.http.impl.conn.tsccm.ConnPoolByRoute.getEntryBlocking,64
org.apache.http.impl.conn.tsccm.ConnPoolByRoute.getFreeEntry,33
org.apache.http.impl.conn.tsccm.ConnPoolByRoute.getLock,1
org.apache.http.impl.conn.tsccm.ConnPoolByRoute.getMaxTotalConnections,1
org.apache.http.impl.conn.tsccm.ConnPoolByRoute.getRoutePool,12
org.apache.http.impl.conn.tsccm.ConnPoolByRoute.handleLostEntry,12
org.apache.http.impl.conn.tsccm.ConnPoolByRoute.newRouteSpecificPool,1
org.apache.http.impl.conn.tsccm.ConnPoolByRoute.newWaitingThread,1
org.apache.http.impl.conn.tsccm.ConnPoolByRoute.notifyWaitingThread,25
org.apache.http.impl.conn.tsccm.ConnPoolByRoute.requestPoolEntry,9
org.apache.http.impl.conn.tsccm.ConnPoolByRoute.setMaxTotalConnections,5
org.apache.http.impl.conn.tsccm.ConnPoolByRoute.shutdown,37
org.apache.http.impl.conn.tsccm.ConnPoolByRoute..abortRequest,5
org.apache.http.impl.conn.tsccm.ConnPoolByRoute..getPoolEntry,2
org.apache.http.impl.conn.tsccm.RefQueueWorker.RefQueueWorker,6
org.apache.http.impl.conn.tsccm.RefQueueWorker.run,10
org.apache.http.impl.conn.tsccm.RefQueueWorker.shutdown,4
org.apache.http.impl.conn.tsccm.RefQueueWorker.toString,1
org.apache.http.impl.conn.tsccm.RouteSpecificPool.RouteSpecificPool,7
org.apache.http.impl.conn.tsccm.RouteSpecificPool.RouteSpecificPool,7
org.apache.http.impl.conn.tsccm.RouteSpecificPool.allocEntry,29
org.apache.http.impl.conn.tsccm.RouteSpecificPool.createdEntry,6
org.apache.http.impl.conn.tsccm.RouteSpecificPool.deleteEntry,5
org.apache.http.impl.conn.tsccm.RouteSpecificPool.dropEntry,3
org.apache.http.impl.conn.tsccm.RouteSpecificPool.freeEntry,6
org.apache.http.impl.conn.tsccm.RouteSpecificPool.getCapacity,2
org.apache.http.impl.conn.tsccm.RouteSpecificPool.getEntryCount,1
org.apache.http.impl.conn.tsccm.RouteSpecificPool.getMaxEntries,1
org.apache.http.impl.conn.tsccm.RouteSpecificPool.getRoute,1
org.apache.http.impl.conn.tsccm.RouteSpecificPool.hasThread,2
org.apache.http.impl.conn.tsccm.RouteSpecificPool.isUnused,2
org.apache.http.impl.conn.tsccm.RouteSpecificPool.nextThread,2
org.apache.http.impl.conn.tsccm.RouteSpecificPool.queueThread,3
org.apache.http.impl.conn.tsccm.RouteSpecificPool.removeThread,3
org.apache.http.impl.conn.tsccm.RouteSpecificPool..getMaxForRoute,1
org.apache.http.impl.conn.tsccm.ThreadSafeClientConnManager.ThreadSafeClientConnManager,2
org.apache.http.impl.conn.tsccm.ThreadSafeClientConnManager.ThreadSafeClientConnManager,12
org.apache.http.impl.conn.tsccm.ThreadSafeClientConnManager.ThreadSafeClientConnManager,1
org.apache.http.impl.conn.tsccm.ThreadSafeClientConnManager.ThreadSafeClientConnManager,1
org.apache.http.impl.conn.tsccm.ThreadSafeClientConnManager.ThreadSafeClientConnManager,13
org.apache.http.impl.conn.tsccm.ThreadSafeClientConnManager.closeExpiredConnections,2
org.apache.http.impl.conn.tsccm.ThreadSafeClientConnManager.closeIdleConnections,4
org.apache.http.impl.conn.tsccm.ThreadSafeClientConnManager.createConnectionOperator,1
org.apache.http.impl.conn.tsccm.ThreadSafeClientConnManager.createConnectionPool,1
org.apache.http.impl.conn.tsccm.ThreadSafeClientConnManager.createConnectionPool,1
org.apache.http.impl.conn.tsccm.ThreadSafeClientConnManager.finalize,3
org.apache.http.impl.conn.tsccm.ThreadSafeClientConnManager.getConnectionsInPool,2
org.apache.http.impl.conn.tsccm.ThreadSafeClientConnManager.getConnectionsInPool,2
org.apache.http.impl.conn.tsccm.ThreadSafeClientConnManager.getDefaultMaxPerRoute,2
org.apache.http.impl.conn.tsccm.ThreadSafeClientConnManager.getMaxForRoute,2
org.apache.http.impl.conn.tsccm.ThreadSafeClientConnManager.getMaxTotal,2
org.apache.http.impl.conn.tsccm.ThreadSafeClientConnManager.getSchemeRegistry,1
org.apache.http.impl.conn.tsccm.ThreadSafeClientConnManager.releaseConnection,30
org.apache.http.impl.conn.tsccm.ThreadSafeClientConnManager.requestConnection,12
org.apache.http.impl.conn.tsccm.ThreadSafeClientConnManager.setDefaultMaxPerRoute,1
org.apache.http.impl.conn.tsccm.ThreadSafeClientConnManager.setMaxForRoute,1
org.apache.http.impl.conn.tsccm.ThreadSafeClientConnManager.setMaxTotal,1
org.apache.http.impl.conn.tsccm.ThreadSafeClientConnManager.shutdown,2
org.apache.http.impl.conn.tsccm.ThreadSafeClientConnManager..abortRequest,1
org.apache.http.impl.conn.tsccm.ThreadSafeClientConnManager..getConnection,8
org.apache.http.impl.conn.tsccm.WaitingThread.WaitingThread,4
org.apache.http.impl.conn.tsccm.WaitingThread.await,19
org.apache.http.impl.conn.tsccm.WaitingThread.getCondition,1
org.apache.http.impl.conn.tsccm.WaitingThread.getPool,1
org.apache.http.impl.conn.tsccm.WaitingThread.getThread,1
org.apache.http.impl.conn.tsccm.WaitingThread.interrupt,2
org.apache.http.impl.conn.tsccm.WaitingThread.wakeup,3
org.apache.http.impl.conn.tsccm.WaitingThreadAborter.abort,3
org.apache.http.impl.conn.tsccm.WaitingThreadAborter.setWaitingThread,3
org.apache.http.impl.cookie.AbstractCookieAttributeHandler.match,1
org.apache.http.impl.cookie.AbstractCookieAttributeHandler.validate,0
org.apache.http.impl.cookie.AbstractCookieSpec.AbstractCookieSpec,2
org.apache.http.impl.cookie.AbstractCookieSpec.findAttribHandler,2
org.apache.http.impl.cookie.AbstractCookieSpec.getAttribHandler,5
org.apache.http.impl.cookie.AbstractCookieSpec.getAttribHandlers,2
org.apache.http.impl.cookie.AbstractCookieSpec.registerAttribHandler,5
org.apache.http.impl.cookie.BasicClientCookie.BasicClientCookie,6
org.apache.http.impl.cookie.BasicClientCookie.clone,3
org.apache.http.impl.cookie.BasicClientCookie.containsAttribute,2
org.apache.http.impl.cookie.BasicClientCookie.getAttribute,2
org.apache.http.impl.cookie.BasicClientCookie.getComment,1
org.apache.http.impl.cookie.BasicClientCookie.getCommentURL,1
org.apache.http.impl.cookie.BasicClientCookie.getDomain,1
org.apache.http.impl.cookie.BasicClientCookie.getExpiryDate,1
org.apache.http.impl.cookie.BasicClientCookie.getName,1
org.apache.http.impl.cookie.BasicClientCookie.getPath,1
org.apache.http.impl.cookie.BasicClientCookie.getPorts,1
org.apache.http.impl.cookie.BasicClientCookie.getValue,1
org.apache.http.impl.cookie.BasicClientCookie.getVersion,1
org.apache.http.impl.cookie.BasicClientCookie.isExpired,5
org.apache.http.impl.cookie.BasicClientCookie.isPersistent,1
org.apache.http.impl.cookie.BasicClientCookie.isSecure,1
org.apache.http.impl.cookie.BasicClientCookie.setAttribute,1
org.apache.http.impl.cookie.BasicClientCookie.setComment,1
org.apache.http.impl.cookie.BasicClientCookie.setDomain,4
org.apache.http.impl.cookie.BasicClientCookie.setExpiryDate,1
org.apache.http.impl.cookie.BasicClientCookie.setPath,1
org.apache.http.impl.cookie.BasicClientCookie.setSecure,1
org.apache.http.impl.cookie.BasicClientCookie.setValue,1
org.apache.http.impl.cookie.BasicClientCookie.setVersion,1
org.apache.http.impl.cookie.BasicClientCookie.toString,22
org.apache.http.impl.cookie.BasicClientCookie2.BasicClientCookie2,1
org.apache.http.impl.cookie.BasicClientCookie2.clone,5
org.apache.http.impl.cookie.BasicClientCookie2.getCommentURL,1
org.apache.http.impl.cookie.BasicClientCookie2.getPorts,1
org.apache.http.impl.cookie.BasicClientCookie2.isExpired,1
org.apache.http.impl.cookie.BasicClientCookie2.isPersistent,1
org.apache.http.impl.cookie.BasicClientCookie2.setCommentURL,1
org.apache.http.impl.cookie.BasicClientCookie2.setDiscard,1
org.apache.http.impl.cookie.BasicClientCookie2.setPorts,1
org.apache.http.impl.cookie.BasicCommentHandler.BasicCommentHandler,1
org.apache.http.impl.cookie.BasicCommentHandler.parse,3
org.apache.http.impl.cookie.BasicDomainHandler.BasicDomainHandler,1
org.apache.http.impl.cookie.BasicDomainHandler.match,20
org.apache.http.impl.cookie.BasicDomainHandler.parse,9
org.apache.http.impl.cookie.BasicDomainHandler.validate,25
org.apache.http.impl.cookie.BasicExpiresHandler.BasicExpiresHandler,3
org.apache.http.impl.cookie.BasicExpiresHandler.parse,9
org.apache.http.impl.cookie.BasicMaxAgeHandler.BasicMaxAgeHandler,1
org.apache.http.impl.cookie.BasicMaxAgeHandler.parse,14
org.apache.http.impl.cookie.BasicPathHandler.BasicPathHandler,1
org.apache.http.impl.cookie.BasicPathHandler.match,27
org.apache.http.impl.cookie.BasicPathHandler.parse,7
org.apache.http.impl.cookie.BasicPathHandler.validate,5
org.apache.http.impl.cookie.BasicSecureHandler.BasicSecureHandler,1
org.apache.http.impl.cookie.BasicSecureHandler.match,7
org.apache.http.impl.cookie.BasicSecureHandler.parse,3
org.apache.http.impl.cookie.BestMatchSpec.BestMatchSpec,1
org.apache.http.impl.cookie.BestMatchSpec.BestMatchSpec,4
org.apache.http.impl.cookie.BestMatchSpec.formatCookies,22
org.apache.http.impl.cookie.BestMatchSpec.getCompat,3
org.apache.http.impl.cookie.BestMatchSpec.getObsoleteStrict,3
org.apache.http.impl.cookie.BestMatchSpec.getStrict,3
org.apache.http.impl.cookie.BestMatchSpec.getVersion,3
org.apache.http.impl.cookie.BestMatchSpec.getVersionHeader,3
org.apache.http.impl.cookie.BestMatchSpec.match,16
org.apache.http.impl.cookie.BestMatchSpec.parse,48
org.apache.http.impl.cookie.BestMatchSpec.toString,1
org.apache.http.impl.cookie.BestMatchSpec.validate,13
org.apache.http.impl.cookie.BestMatchSpecFactory.newInstance,13
org.apache.http.impl.cookie.BrowserCompatSpec.BrowserCompatSpec,1
org.apache.http.impl.cookie.BrowserCompatSpec.BrowserCompatSpec,11
org.apache.http.impl.cookie.BrowserCompatSpec.formatCookies,26
org.apache.http.impl.cookie.BrowserCompatSpec.getVersion,1
org.apache.http.impl.cookie.BrowserCompatSpec.getVersionHeader,1
org.apache.http.impl.cookie.BrowserCompatSpec.parse,44
org.apache.http.impl.cookie.BrowserCompatSpec.toString,1
org.apache.http.impl.cookie.BrowserCompatSpecFactory.newInstance,11
org.apache.http.impl.cookie.CookieSpecBase.getDefaultDomain,2
org.apache.http.impl.cookie.CookieSpecBase.getDefaultPath,10
org.apache.http.impl.cookie.CookieSpecBase.match,10
org.apache.http.impl.cookie.CookieSpecBase.parse,31
org.apache.http.impl.cookie.CookieSpecBase.validate,7
org.apache.http.impl.cookie.DateParseException.DateParseException,1
org.apache.http.impl.cookie.DateParseException.DateParseException,1
org.apache.http.impl.cookie.DateUtils.DateUtils,0
org.apache.http.impl.cookie.DateUtils.formatDate,2
org.apache.http.impl.cookie.DateUtils.formatDate,8
org.apache.http.impl.cookie.DateUtils.parseDate,2
org.apache.http.impl.cookie.DateUtils.parseDate,2
org.apache.http.impl.cookie.DateUtils.parseDate,22
org.apache.http.impl.cookie.DateUtils.DateFormatHolder.formatFor,15
org.apache.http.impl.cookie.DateUtils.DateFormatHolder..initialValue,1
org.apache.http.impl.cookie.IgnoreSpec.formatCookies,2
org.apache.http.impl.cookie.IgnoreSpec.getVersion,1
org.apache.http.impl.cookie.IgnoreSpec.getVersionHeader,1
org.apache.http.impl.cookie.IgnoreSpec.parse,2
org.apache.http.impl.cookie.IgnoreSpecFactory.newInstance,1
org.apache.http.impl.cookie.NetscapeDomainHandler.NetscapeDomainHandler,1
org.apache.http.impl.cookie.NetscapeDomainHandler.isSpecialDomain,10
org.apache.http.impl.cookie.NetscapeDomainHandler.match,12
org.apache.http.impl.cookie.NetscapeDomainHandler.validate,14
org.apache.http.impl.cookie.NetscapeDraftHeaderParser.NetscapeDraftHeaderParser,1
org.apache.http.impl.cookie.NetscapeDraftHeaderParser.parseHeader,17
org.apache.http.impl.cookie.NetscapeDraftHeaderParser.parseNameValuePair,51
org.apache.http.impl.cookie.NetscapeDraftSpec.NetscapeDraftSpec,1
org.apache.http.impl.cookie.NetscapeDraftSpec.NetscapeDraftSpec,11
org.apache.http.impl.cookie.NetscapeDraftSpec.formatCookies,26
org.apache.http.impl.cookie.NetscapeDraftSpec.getVersion,1
org.apache.http.impl.cookie.NetscapeDraftSpec.getVersionHeader,1
org.apache.http.impl.cookie.NetscapeDraftSpec.parse,30
org.apache.http.impl.cookie.NetscapeDraftSpec.toString,1
org.apache.http.impl.cookie.NetscapeDraftSpecFactory.newInstance,11
org.apache.http.impl.cookie.PublicSuffixFilter.PublicSuffixFilter,1
org.apache.http.impl.cookie.PublicSuffixFilter.isForPublicSuffix,30
org.apache.http.impl.cookie.PublicSuffixFilter.match,5
org.apache.http.impl.cookie.PublicSuffixFilter.parse,1
org.apache.http.impl.cookie.PublicSuffixFilter.setExceptions,1
org.apache.http.impl.cookie.PublicSuffixFilter.setPublicSuffixes,1
org.apache.http.impl.cookie.PublicSuffixFilter.validate,1
org.apache.http.impl.cookie.PublicSuffixListParser.PublicSuffixListParser,1
org.apache.http.impl.cookie.PublicSuffixListParser.parse,30
org.apache.http.impl.cookie.PublicSuffixListParser.readLine,18
org.apache.http.impl.cookie.RFC2109DomainHandler.RFC2109DomainHandler,1
org.apache.http.impl.cookie.RFC2109DomainHandler.match,14
org.apache.http.impl.cookie.RFC2109DomainHandler.parse,9
org.apache.http.impl.cookie.RFC2109DomainHandler.validate,36
org.apache.http.impl.cookie.RFC2109Spec.RFC2109Spec,1
org.apache.http.impl.cookie.RFC2109Spec.RFC2109Spec,13
org.apache.http.impl.cookie.RFC2109Spec.doFormatManyHeaders,14
org.apache.http.impl.cookie.RFC2109Spec.doFormatOneHeader,20
org.apache.http.impl.cookie.RFC2109Spec.formatCookieAsVer,17
org.apache.http.impl.cookie.RFC2109Spec.formatCookies,14
org.apache.http.impl.cookie.RFC2109Spec.formatParamAsVer,8
org.apache.http.impl.cookie.RFC2109Spec.getVersion,1
org.apache.http.impl.cookie.RFC2109Spec.getVersionHeader,1
org.apache.http.impl.cookie.RFC2109Spec.parse,13
org.apache.http.impl.cookie.RFC2109Spec.toString,1
org.apache.http.impl.cookie.RFC2109Spec.validate,10
org.apache.http.impl.cookie.RFC2109SpecFactory.newInstance,13
org.apache.http.impl.cookie.RFC2109VersionHandler.RFC2109VersionHandler,1
org.apache.http.impl.cookie.RFC2109VersionHandler.parse,14
org.apache.http.impl.cookie.RFC2109VersionHandler.validate,5
org.apache.http.impl.cookie.RFC2965CommentUrlAttributeHandler.RFC2965CommentUrlAttributeHandler,1
org.apache.http.impl.cookie.RFC2965CommentUrlAttributeHandler.match,1
org.apache.http.impl.cookie.RFC2965CommentUrlAttributeHandler.parse,3
org.apache.http.impl.cookie.RFC2965CommentUrlAttributeHandler.validate,0
org.apache.http.impl.cookie.RFC2965DiscardAttributeHandler.RFC2965DiscardAttributeHandler,1
org.apache.http.impl.cookie.RFC2965DiscardAttributeHandler.match,1
org.apache.http.impl.cookie.RFC2965DiscardAttributeHandler.parse,3
org.apache.http.impl.cookie.RFC2965DiscardAttributeHandler.validate,0
org.apache.http.impl.cookie.RFC2965DomainAttributeHandler.RFC2965DomainAttributeHandler,1
org.apache.http.impl.cookie.RFC2965DomainAttributeHandler.domainMatch,5
org.apache.http.impl.cookie.RFC2965DomainAttributeHandler.match,18
org.apache.http.impl.cookie.RFC2965DomainAttributeHandler.parse,14
org.apache.http.impl.cookie.RFC2965DomainAttributeHandler.validate,43
org.apache.http.impl.cookie.RFC2965PortAttributeHandler.RFC2965PortAttributeHandler,1
org.apache.http.impl.cookie.RFC2965PortAttributeHandler.match,16
org.apache.http.impl.cookie.RFC2965PortAttributeHandler.parse,10
org.apache.http.impl.cookie.RFC2965PortAttributeHandler.parsePortAttribute,18
org.apache.http.impl.cookie.RFC2965PortAttributeHandler.portMatch,7
org.apache.http.impl.cookie.RFC2965PortAttributeHandler.validate,12
org.apache.http.impl.cookie.RFC2965Spec.RFC2965Spec,1
org.apache.http.impl.cookie.RFC2965Spec.RFC2965Spec,6
org.apache.http.impl.cookie.RFC2965Spec.adjustEffectiveHost,18
org.apache.http.impl.cookie.RFC2965Spec.createCookies,41
org.apache.http.impl.cookie.RFC2965Spec.formatCookieAsVer,19
org.apache.http.impl.cookie.RFC2965Spec.getVersion,1
org.apache.http.impl.cookie.RFC2965Spec.getVersionHeader,8
org.apache.http.impl.cookie.RFC2965Spec.match,7
org.apache.http.impl.cookie.RFC2965Spec.parse,15
org.apache.http.impl.cookie.RFC2965Spec.parse,4
org.apache.http.impl.cookie.RFC2965Spec.toString,1
org.apache.http.impl.cookie.RFC2965Spec.validate,6
org.apache.http.impl.cookie.RFC2965SpecFactory.newInstance,13
org.apache.http.impl.cookie.RFC2965VersionAttributeHandler.RFC2965VersionAttributeHandler,1
org.apache.http.impl.cookie.RFC2965VersionAttributeHandler.match,1
org.apache.http.impl.cookie.RFC2965VersionAttributeHandler.parse,13
org.apache.http.impl.cookie.RFC2965VersionAttributeHandler.validate,6
